<?xml version="1.0" standalone="no"?>
<!DOCTYPE svg PUBLIC "-//W3C//DTD SVG 1.1//EN" "http://www.w3.org/Graphics/SVG/1.1/DTD/svg11.dtd" >
<!--
2018-7-20: Created with FontForge (http://fontforge.org)
-->
<svg xmlns="http://www.w3.org/2000/svg" xmlns:xlink="http://www.w3.org/1999/xlink" version="1.1">
<metadata>
Created by FontForge 20160405 at Fri Jul 20 12:39:45 2018
 By Apache
Copyright (c) 2018, Apache
</metadata>
<defs>
<font id="Flaticon" horiz-adv-x="512" >
  <font-face 
    font-family="Flaticon"
    font-weight="400"
    font-stretch="normal"
    units-per-em="512"
    panose-1="2 0 5 3 0 0 0 0 0 0"
    ascent="448"
    descent="-64"
    bbox="-0.000488291 -64.0117 512.002 448"
    underline-thickness="25.6"
    underline-position="-51.2"
    unicode-range="U+0020-F123"
  />
    <missing-glyph />
    <glyph glyph-name="space" unicode=" " horiz-adv-x="200" 
 />
    <glyph glyph-name="uniF103" unicode="&#xf103;" 
d="M256.009 175.396c15.25 0 27.6748 -12.4062 27.6748 -27.6562s-12.4248 -27.666 -27.6748 -27.666c-15.2588 0 -27.6826 12.416 -27.6826 27.666s12.4238 27.6562 27.6826 27.6562zM323.199 135.169c-49.0322 -56.9619 -43.9102 -136.96 -41.749 -156.77
c-8.34961 -1.00195 -16.8457 -1.58594 -25.4414 -1.58594c-7.1377 0 -14.1748 0.374023 -21.1299 1.05762c1.75 13.7373 10.2275 99.4414 -41.4482 159.513c-32.7422 38.0469 -82.6953 57.3633 -148.482 57.373c0.648438 20.3086 4.04883 39.9434 10.0371 58.4209
c20.3457 -13.2451 101.383 -61.2471 206.62 -61.2471c59.5977 0 126.943 15.4971 195.392 61.293c6.24414 -19.2246 9.78027 -39.6523 10.2002 -60.8457c-63.5078 -0.884766 -112.012 -20.0361 -143.998 -57.209zM443.352 224.848l-66.8984 -28.7783l3.50879 -8.12207
l66.8896 28.7598zM136.678 187.948l3.48145 8.12207l-66.8799 28.7783l-3.49121 -8.14062zM219.483 147.74c0 -20.1455 16.3711 -36.5254 36.5254 -36.5254c20.1367 0 36.5254 16.3799 36.5254 36.5254c0 20.1357 -16.3887 36.5166 -36.5254 36.5166
c-20.1543 0 -36.5254 -16.3809 -36.5254 -36.5166zM256 447.995c141.153 0 256 -114.837 256 -255.99c0 -141.154 -114.847 -256 -256 -256s-256 114.837 -256 256c0 141.153 114.847 255.99 256 255.99zM256 -32.0273c121.382 0 220.148 98.7588 220.148 220.158
c0 121.4 -98.7666 220.157 -220.148 220.157c-121.391 0 -220.166 -98.7676 -220.166 -220.167c0 -121.4 98.7754 -220.148 220.166 -220.148z" />
    <glyph glyph-name="uniF102" unicode="&#xf102;" 
d="M356.723 284.395c36.4141 0 66.0381 -29.7686 66.0391 -66.3545c0 -59.8271 -94.2168 -116.468 -104.958 -122.73c-2.80664 -1.63379 -5.94434 -2.45312 -9.08008 -2.45312c-3.13867 0 -6.27344 0.819336 -9.07812 2.45312
c-10.7461 6.26172 -104.97 62.9033 -104.97 122.73c0 36.5859 29.627 66.3545 66.043 66.3545c18.8916 0 35.957 -8.0127 48.0039 -20.835c12.0459 12.8223 29.1094 20.835 48 20.835zM308.724 132.014c33.375 21.2949 77.9795 58.9229 77.9824 86.0244
c0 16.7061 -13.4492 30.2988 -29.9814 30.2988c-16.5273 0 -29.9707 -13.5928 -29.9707 -30.2988c0 -9.95605 -8.07227 -18.0293 -18.0283 -18.0293c-9.95508 0 -18.0283 8.07324 -18.0283 18.0293c0 16.7061 -13.4482 30.2988 -29.9775 30.2988
c-16.5332 0 -29.9873 -13.5928 -29.9873 -30.2988c0 -27.1035 44.6113 -64.7314 77.9912 -86.0244zM512 355.605c0 -27.2012 -17.7822 -52.3154 -28.126 -64.626c17.9414 -29.5479 28.126 -63.2373 28.126 -98.9795c0 -51.4531 -21.0674 -100.547 -59.4922 -139.072
v-84.0254c0 -9.95508 -8.07324 -18.0283 -18.0283 -18.0283h-89.2402c-9.95508 0 -18.0283 8.07324 -18.0283 18.0283v17.5234c-18.375 -3.8584 -37.2393 -5.80566 -56.3369 -5.80566c-19.1133 0 -37.9795 1.94629 -56.3389 5.7959v-17.5137
c0 -9.95508 -8.07324 -18.0283 -18.0293 -18.0283h-89.2393c-9.95605 0 -18.0283 8.07324 -18.0283 18.0283v84.0547c-14.1533 14.1875 -25.9863 29.8193 -35.3164 46.6504h-35.8936c-9.95508 0 -18.0283 8.07324 -18.0283 18.0264v148.733
c0 9.9541 8.07324 18.0273 18.0283 18.0273h35.8975c15.3857 27.7305 37.6133 52.2666 65.0596 71.792v58.9111c0 4.78223 1.90039 9.36719 5.28223 12.75c3.37891 3.37891 7.9668 5.27832 12.7451 5.27832h0.00488281c2.20801 0 50.376 -0.435547 81.6924 -34.7119
c17.0742 3.29883 34.5684 4.96582 52.1641 4.96582c77.5361 0 146.63 -32.2578 190.771 -82.2578c7.0166 9.74414 14.2998 22.8779 14.2998 34.4834c0 9.95605 8.07129 18.0273 18.0273 18.0273c9.95508 0 18.0283 -8.07129 18.0283 -18.0273zM422.169 73.7363
c34.6777 32.4062 53.7754 74.4072 53.7793 118.26c0 78.1074 -60.0576 144.438 -142.761 167.04c0.21582 -1.1123 0.334961 -2.25879 0.334961 -3.43359c0 -9.95605 -8.07129 -18.0293 -18.0273 -18.0293h-59.4932c-9.95605 0 -18.0293 8.07324 -18.0293 18.0293
c0 3.62695 1.08301 6.99707 2.92578 9.82617c-8.47266 -1.06445 -16.8613 -2.56055 -25.1016 -4.52246c-7.23145 -1.71875 -14.7842 1.17285 -19.0117 7.28906c-10.96 15.8672 -28.4902 23.0205 -41.7422 26.2432v-47.7871c0 -6.0957 -3.08105 -11.7793 -8.19043 -15.1084
c-29.1494 -18.9834 -51.877 -44.2285 -65.7217 -72.998c-3.00391 -6.24316 -9.31836 -10.2109 -16.2451 -10.2109h-28.8301v-112.677h28.832c6.92871 0 13.2412 -3.96777 16.2441 -10.21c9.13867 -18.9873 22.0752 -36.3779 38.4502 -51.6885
c3.64648 -3.40918 5.7168 -8.17969 5.7168 -13.1699v-73.6631h53.1826v22.7246c0 5.7168 2.71094 11.0938 7.30859 14.4951c4.59766 3.39746 10.5332 4.41602 16 2.74219c22.123 -6.77832 45.3643 -10.2139 69.0859 -10.2139c23.6914 0 46.9326 3.43945 69.083 10.2256
c5.4707 1.67578 11.4043 0.65918 16.002 -2.74219c4.5957 -3.39844 7.30762 -8.77832 7.30762 -14.4951v-22.7344h53.1836v73.6367c0 4.99414 2.07031 9.76074 5.7168 13.1719zM137.009 254.648c4.74121 0 9.39258 -1.92773 12.7451 -5.28027
c3.37207 -3.35645 5.28418 -8.00781 5.28418 -12.748c0 -4.74121 -1.91211 -9.39355 -5.28418 -12.7451c-3.35254 -3.35254 -7.98535 -5.28418 -12.7451 -5.28418c-4.74023 0 -9.39355 1.93164 -12.7461 5.28418c-3.35352 3.35254 -5.28027 8.00391 -5.28027 12.7451
c0 4.74023 1.92676 9.39355 5.28027 12.748c3.37207 3.35254 8.00586 5.28027 12.7461 5.28027z" />
    <glyph glyph-name="uniF116" unicode="&#xf116;" 
d="M405.688 119.069c50.499 0 91.6416 -41.0361 91.6416 -91.5342c0 -50.499 -41.0371 -91.5352 -91.5352 -91.5352s-91.5352 41.1426 -91.5352 91.5352c0 10.6309 1.91406 20.9434 5.31641 30.5117l-140.545 78.5645c-16.7979 -21.9004 -43.1631 -36.04 -72.7178 -36.04
c-50.499 0 -91.6416 41.0371 -91.6416 91.5352s41.1426 91.5352 91.5352 91.5352c29.5547 0 55.9199 -14.0332 72.6113 -35.9336l140.438 78.458c-3.40234 9.46191 -5.20898 19.668 -5.20898 30.2988c0 50.499 41.0361 91.5352 91.5342 91.5352
c50.499 0 91.5352 -41.0361 91.5352 -91.5352c0 -50.498 -41.1426 -91.5342 -91.5352 -91.5342c-29.5547 0 -55.9199 14.1387 -72.6113 35.9336l-140.545 -78.459c3.40234 -9.56836 5.20996 -19.668 5.20996 -30.2988c0 -10.5254 -1.80762 -20.7314 -5.10352 -30.1924
l140.651 -78.5654c16.7979 21.6875 43.0566 35.7207 72.5049 35.7207zM405.688 419.189c-34.5518 0 -62.8301 -28.1729 -62.8301 -62.8311c0 -34.6572 28.1729 -62.8301 62.8301 -62.8301c34.6582 0 62.8311 28.1729 62.8311 62.8301
c0 34.6582 -28.1729 62.8311 -62.8311 62.8311zM106.312 129.275c34.5518 0 62.8301 28.1729 62.8301 62.8311c0 34.6572 -28.1729 62.8301 -62.8301 62.8301c-34.6582 0 -62.8311 -28.1729 -62.8311 -62.8301c0 -34.6582 28.1729 -62.8311 62.8311 -62.8311z
M405.688 -35.1895c34.6582 0 62.8311 28.1729 62.8311 62.8311c0 34.6572 -28.1729 62.8301 -62.8311 62.8301c-34.6572 0 -62.8301 -28.1729 -62.8301 -62.8301c0 -34.6582 28.1729 -62.8311 62.8301 -62.8311z" />
    <glyph glyph-name="uniF113" unicode="&#xf113;" 
d="M473.6 191.4c0 -86.4004 -50.7998 -163.2 -127.3 -197.801l31.4004 -13.5c8.7002 -3.7998 12.7002 -13.8994 9 -22.5996c-2.7998 -6.5 -11.7998 -12.7998 -22.6006 -9l-72.1992 31c-8.7002 3.7998 -12.7002 13.9004 -9 22.5996l31 72.2002
c3.7998 8.7002 13.8994 12.7002 22.5996 9c8.7002 -3.7998 12.7002 -13.8994 9 -22.5996l-15.9004 -37c65.7002 28.7002 109.601 94 109.601 167.7c0 83.5996 -56.5 156.6 -137.4 177.3c-9.2002 2.2998 -14.7998 11.7002 -12.3994 20.8994
c2.2998 9.2002 11.6992 14.8008 20.8994 12.4004c96.2002 -24.7002 163.3 -111.3 163.3 -210.6zM210.4 14.0996c9.19922 -2.39941 14.6992 -11.6992 12.3994 -20.8994c-2 -7.7998 -9.2998 -15.4004 -20.8994 -12.4004c-96.1006 24.7998 -163.301 111.3 -163.301 210.601
c0 86.5996 51 163.5 127.801 198.199l-33.6006 14.4004c-8.7002 3.7998 -12.7002 13.9004 -9 22.5996c3.7998 8.7002 13.9004 12.7002 22.6006 9l72.1992 -31c11.9004 -5.09961 12 -15.5996 9 -22.5996l-31 -72.2998c-3.39941 -8.2002 -12.1992 -12.9004 -22.5996 -9
c-8.90039 3.39941 -12.7002 13.8994 -9 22.5996l14.9004 34.6006c-64.2002 -29.3008 -106.9 -93.8008 -106.9 -166.5c0 -83.6006 56.5 -156.5 137.4 -177.301zM296.6 126.6c-8.69922 -9.19922 -20.0996 -14.1992 -34.0996 -14.8994v-20.2002h-11.7998v19.9004
c-9.90039 1.2998 -18.1006 3.5 -24.2998 6.69922c-6.30078 3.2002 -11.7002 8.40039 -16.2002 15.6006s-7.2002 16 -7.90039 26.2998l20.1006 3.7998c1.5 -10.7002 4.2998 -18.5996 8.19922 -23.5996c5.60059 -7.10059 12.4004 -11.1006 20.2002 -11.9004v63.5
c-8.2002 1.5 -16.5996 4.7002 -25.2002 9.5c-6.39941 3.5 -11.2998 8.40039 -14.6992 14.7002c-3.5 6.2998 -5.2002 13.4004 -5.2002 21.4004c0 14.1992 5 25.6992 15.0996 34.5c6.7002 5.89941 16.7002 9.59961 29.9004 10.8994v9.5h11.7998v-9.5
c11.5996 -1.09961 20.7998 -4.5 27.5996 -10.2002c8.7002 -7.19922 13.9004 -17.1992 15.7002 -29.7998l-20.5996 -3.09961c-1.2002 7.7998 -3.7002 13.7998 -7.40039 18c-3.7998 4.2002 -8.89941 7 -15.3994 8.2998v-57.4004c10.0996 -2.5 16.6992 -4.5 20 -5.89941
c6.19922 -2.7998 11.2998 -6.10059 15.1992 -10c3.90039 -4 6.90039 -8.60059 9 -14c2.10059 -5.40039 3.2002 -11.2002 3.2002 -17.5c0 -13.7998 -4.39941 -25.4004 -13.2002 -34.6006zM250.8 211.1v55.2002c-7.7002 -1.2002 -13.7998 -4.2998 -18.2998 -9.2998
s-6.7002 -10.9004 -6.7002 -17.7998c0 -6.7998 1.90039 -12.5 5.7002 -17.1006c3.7998 -4.59961 10.2002 -8.2998 19.2998 -11zM281.7 138.5c5.09961 5.7002 7.59961 12.9004 7.7002 21.2998c0 7.2998 -1.80078 13.1006 -5.40039 17.5
c-3.59961 4.40039 -10.7998 8.2998 -21.5 11.7998v-60.6992c7.7002 1 14.0996 4.2998 19.2002 10.0996z" />
    <glyph glyph-name="uniF108" unicode="&#xf108;" 
d="M461.777 207.998c37.6885 0 58.8447 -29.3125 46.8711 -65.0938l-59.4648 -144.186c-11.9717 -35.8057 -52.5947 -46.7148 -90.3184 -46.7148h-205.757c-37.7158 0 -78.3398 10.9072 -90.2646 46.7148l-59.5117 144.186
c-11.9219 35.7812 9.16992 65.0938 46.9023 65.0938h26.5322l118.733 178.092c-2.09277 4.25195 -3.49902 8.84473 -3.49902 13.9072c0 17.6875 14.3262 32.001 32 32.001c17.6699 0 31.9961 -14.3135 31.9961 -32.001c0 -17.6846 -14.3252 -32.001 -31.9961 -32.001
c-0.65918 0 -1.2041 0.344727 -1.86133 0.374023l-106.904 -160.372h281.54l-106.935 160.371c-0.625977 -0.0283203 -1.18555 -0.374023 -1.84668 -0.374023c-17.665 0 -31.9971 14.3164 -31.9971 32.001c0 17.6875 14.332 32.001 31.9971 32.001
c17.6855 0 32.0049 -14.3135 32.0049 -32.001c0 -5.0625 -1.41211 -9.68652 -3.50098 -13.9365l118.715 -178.062h26.5645zM128.003 32.001v96.001c0 8.83984 -7.16113 15.999 -16.0029 15.999c-8.84277 0 -15.998 -7.15918 -15.998 -15.999v-96.001
c0 -8.8457 7.15527 -15.9951 15.998 -15.9951s16.0029 7.14941 16.0029 15.9951zM224.001 32.001v96.001c0 8.83984 -7.16016 15.999 -16.0029 15.999c-8.84473 0 -15.9971 -7.15918 -15.9971 -15.999v-96.001c0 -8.8457 7.15234 -15.9951 15.9971 -15.9951
c8.84277 0 16.0029 7.14941 16.0029 15.9951zM320.001 32.001v96.001c0 8.83984 -7.16016 15.999 -16.0059 15.999c-8.83887 0 -16 -7.15918 -16 -15.999v-96.001c0 -8.8457 7.16113 -15.9951 16 -15.9951c8.8457 0 16.0059 7.14941 16.0059 15.9951zM415.996 32.001v96.001
c0 8.83984 -7.1543 15.999 -15.999 15.999s-16.0059 -7.15918 -16.0059 -15.999v-96.001c0 -8.8457 7.16113 -15.9951 16.0059 -15.9951s15.999 7.14941 15.999 15.9951z" />
    <glyph glyph-name="uniF122" unicode="&#xf122;" 
d="M256 422.599c101.209 0 183.765 -82.5557 183.367 -184.161c0 -13.0977 -1.19043 -26.1953 -3.96875 -38.8965c0 -0.793945 -0.396484 -1.58789 -0.396484 -2.38086c-20.2422 -88.9062 -161.936 -225.042 -167.889 -230.996
c-3.17578 -2.77832 -7.14453 -4.36523 -11.1133 -4.36523s-7.9375 1.19043 -11.1133 4.36523c-5.95312 5.55664 -148.44 142.09 -168.682 232.98c0 1.19043 -0.397461 1.98438 -0.397461 2.77832c-2.38086 11.9062 -3.57227 24.2109 -3.57227 36.5146
c0 101.605 82.5557 184.161 183.765 184.161zM403.646 205.494c2.38184 10.7168 3.57227 21.8301 3.57227 33.3398c0 83.7461 -68.2666 151.615 -151.615 151.615c-83.3496 0 -151.219 -68.2666 -151.219 -151.615c0 -10.3193 1.19043 -20.6387 3.1748 -30.958
c0.397461 -0.793945 0.397461 -1.19043 0.397461 -1.98438c15.082 -67.4727 114.307 -171.461 148.043 -205.197c33.7363 33.7363 132.564 137.725 147.646 203.609v1.19043zM256 319.008c34.1338 0 61.5195 -27.3857 61.5195 -61.5195
c0 -34.1328 -27.7832 -61.5195 -61.5195 -61.5195s-61.5195 27.7832 -61.5195 61.5195s27.3857 61.5195 61.5195 61.5195zM256 228.118c16.2725 0 29.3701 13.0977 29.3701 29.3701c0 16.2734 -13.0977 29.3711 -29.3701 29.3711s-29.3701 -13.0977 -29.3701 -29.3711
c0 -16.2725 13.0977 -29.3701 29.3701 -29.3701z" />
    <glyph glyph-name="uniF101" unicode="&#xf101;" 
d="M498.819 224.811c8.5 -8.5 13.1807 -19.7998 13.1816 -31.8164c0 -12.0166 -4.68164 -23.3164 -13.1826 -31.8164c-12.8262 -12.8262 -31.1846 -16.1416 -46.8164 -10.6279v-199.551c0 -8.28418 -6.71582 -15 -15 -15h-361.993c-8.28418 0 -15 6.71582 -15 15v199.548
c-15.6104 -5.49902 -33.9736 -2.21094 -46.8154 10.6309c-17.5928 17.5908 -17.5908 46.0449 0 63.6338l212.046 210.046c17.4492 17.4473 45.9189 17.6143 63.584 -0.0507812l43.1816 -43.1816v11.3652c0 8.28418 6.71582 15 15 15h59.999c8.28418 0 15 -6.71582 15 -15
v-101.363zM362.003 387.991v-26.3652l29.999 -29.999v56.3643h-29.999zM302.004 -34.001v121.998h-89.998v-121.998h89.998zM422.002 -34.001v208.361l-165.052 165.052l-166.941 -165.191v-208.222h91.9971v136.997c0 8.28418 6.71582 15 15 15h119.998
c8.28418 0 15 -6.71582 15 -15v-136.997h89.998zM477.606 182.39c5.84668 5.84863 5.84668 15.3613 0.000976562 21.208l-209.996 209.996c-5.86719 5.86621 -15.3438 5.86523 -21.209 0l-212.047 -210.045c-5.79785 -5.79688 -5.79785 -15.3115 0.0498047 -21.1592
c5.84766 -5.84668 15.3604 -5.84668 21.209 0c7.34668 7.27051 181.951 180.043 190.841 188.842c5.86621 5.80469 15.3232 5.7793 21.1572 -0.0566406c15.4912 -15.4922 182.34 -182.34 188.785 -188.785c5.86621 -5.86523 15.3428 -5.86426 21.209 0zM257.005 267.993
c33.084 0 59.999 -26.915 59.999 -59.999s-26.915 -59.999 -59.999 -59.999s-59.999 26.915 -59.999 59.999s26.916 59.999 59.999 59.999zM257.005 177.995c16.542 0 29.999 13.458 29.999 29.999s-13.457 29.999 -29.999 29.999
c-16.541 0 -29.999 -13.458 -29.999 -29.999s13.457 -29.999 29.999 -29.999z" />
    <glyph glyph-name="uniF114" unicode="&#xf114;" 
d="M496.98 86.001c9.1875 0 15.9648 -8.16797 14.9111 -17.2959c-2.89258 -25.0762 -13.2939 -47.9902 -27.0244 -67.7598l-83.4033 85.0557h95.5166zM227.902 86.001h101.133l-88.667 -86.9707c-14.4639 20.167 -24.3926 43.8076 -27.3779 69.6748
c-1.05273 9.12793 5.72363 17.2959 14.9121 17.2959zM260.062 -23.6484l90.9375 89.0615v-128.355c-34.8877 2.64062 -66.7568 16.7959 -90.9375 39.2939zM380.999 64.1348l84.4004 -86.2148c-22.6543 -21.6846 -51.7412 -36.0283 -84.4004 -40.1572v126.372z
M227.907 116.001c-12.7734 0 -24.9756 -5.46387 -33.4717 -15c-8.64258 -9.71191 -12.7441 -22.7344 -11.25 -35.7422c5.74316 -49.7695 31.8545 -92.2998 68.9688 -121.051c-17.79 -5.25488 -36.1904 -8.20703 -55.1543 -8.20703c-107.521 0 -197 87.4795 -197 195
c0 101.973 80.7227 187.774 180.565 196.166c-6.65332 34.5898 -37.0635 60.833 -73.5654 60.833c-8.29102 0 -15 6.70898 -15 15s6.70898 15 15 15c52.9883 0 96.4902 -39.6074 103.553 -90.6865c101.196 -7.01074 181.446 -93.3672 181.446 -196.312
c0 -5.03906 -0.859375 -9.98535 -1.24512 -15h-162.847zM256.999 176.001c-8.2832 0 -14.999 -6.71484 -14.999 -15c0 -8.28418 6.71582 -15 14.999 -15c8.28418 0 15 6.71582 15 15c0 8.28516 -6.71582 15 -15 15zM107 56.001c8.28418 0 15 6.71582 15 15
c0 8.28613 -6.71582 15 -15 15s-15 -6.71387 -15 -15c0 -8.28418 6.71582 -15 15 -15zM107 146.001c8.28418 0 15 6.71582 15 15c0 8.28516 -6.71582 15 -15 15s-15 -6.71484 -15 -15c0 -8.28418 6.71582 -15 15 -15zM167 206c8.2832 0 15 6.7168 15 15
c0 8.28613 -6.7168 15 -15 15c-8.28418 0 -15 -6.71387 -15 -15c0 -8.2832 6.71582 -15 15 -15zM346.999 448c8.29102 0 15 -6.70898 15 -15c0 -43.0283 -20.6064 -80.9727 -52.0566 -105.71c-22.8311 13.3252 -48.165 22.6875 -75.168 27.2812
c-5.08008 15.5459 -12.7734 29.7324 -22.7744 42.2344c24.7598 30.9482 62.3721 51.1943 104.999 51.1943h30z" />
    <glyph glyph-name="uniF107" unicode="&#xf107;" 
d="M178.475 324.882c0 44.5352 36.1035 80.6377 80.6377 80.6377c44.5352 0 80.6377 -36.1025 80.6377 -80.6377c0 -44.5342 -36.1025 -80.6377 -80.6377 -80.6377c-44.5342 0 -80.6377 36.1035 -80.6377 80.6377zM497.153 346.896
c17.7344 -15.0498 19.8711 -41.5908 4.85059 -59.2891l-158.339 -186.634c-0.138672 -0.125977 -0.258789 -0.204102 -0.384766 -0.330078v-122.163h-168.293v116.279c-2.35938 1.81348 -4.61035 3.86035 -6.58594 6.20801l-158.399 186.634
c-15.0391 17.7217 -12.8711 44.2627 4.83887 59.3135c17.7393 15.0381 44.2383 12.8467 59.3311 -4.86914l121.869 -143.619c15.4043 17.6318 37.8037 28.9902 63.0713 28.9902c23.5576 0 44.7383 -9.71973 60.0469 -25.2686l118.705 139.88
c15.0146 17.7393 41.5195 19.9492 59.2891 4.86816zM316.343 122.622c0.457031 1.77051 0.654297 2.70117 0.654297 2.70117s-0.900391 0.492188 -2.4248 1.11035c-1.54297 0.576172 -3.96875 1.72363 -6.84375 2.3418c-2.89941 0.702148 -6.82031 1.89648 -10.7822 2.05859
c-3.9502 0.228516 -8.4707 0.162109 -13.3574 -0.246094c-4.74902 -0.612305 -9.5752 -1.84277 -14.7383 -3.40918c-5.14551 -1.53711 -9.82812 -3.98633 -14.7988 -6.63379c-4.83887 -2.73242 -9.23926 -6.08203 -13.6338 -9.71387
c-4.11816 -3.74023 -8.01465 -7.80469 -11.5859 -12.1631c-3.30859 -4.41797 -6.54395 -8.99902 -9.01172 -13.8076c-2.54492 -4.80859 -4.73047 -9.7373 -6.20117 -14.75c-3.23633 -9.90039 -4.27441 -20.0098 -4.05859 -28.9668
c0.186523 -4.52051 0.642578 -8.7168 1.34473 -12.5947c0.69043 -3.83691 1.76562 -7.33008 2.62988 -10.1699c0.383789 -1.32715 0.881836 -2.58203 1.32617 -3.69238c0.666992 1.51855 1.40527 3.18164 2.18555 4.98926c4.08203 8.91504 10.0381 20.5674 17.1035 31.5352
c3.49414 5.4873 7.38477 10.7285 11.209 15.4951c2.00488 2.28125 3.97363 4.47266 5.83496 6.59766c1.97461 1.94531 3.87207 3.7998 5.63672 5.48145c1.8916 1.58496 3.61426 2.95898 5.12695 4.23242c1.47754 1.30859 2.98438 2.08887 4.18457 2.91699
c2.35352 1.55566 3.69824 2.41992 3.69824 2.41992s-1.28516 -0.984375 -3.53613 -2.67188c-1.0625 -0.917969 -2.52734 -1.8252 -3.9082 -3.24121c-1.4043 -1.33887 -2.95996 -2.88184 -4.68262 -4.52148c-1.60254 -1.80664 -3.32617 -3.78125 -5.13281 -5.87695
c-1.63867 -2.18555 -3.36816 -4.48438 -5.1748 -6.86816c-3.36816 -4.9707 -6.77148 -10.373 -9.7793 -16.0225c-6.04004 -11.2207 -10.9805 -23.0537 -14.2285 -32.0283c-0.480469 -1.375 -0.924805 -2.67188 -1.34473 -3.92676l7.36621 0.0429688
c2.08301 0.738281 4.35254 1.60254 6.64551 2.62891c3.36816 1.47656 6.98242 3.16992 10.6387 5.09668c3.66797 1.92773 7.28809 4.125 10.9434 6.40625c3.66211 2.34668 7.15625 4.93457 10.5186 7.60645c3.33203 2.79102 6.65137 5.60645 9.60547 8.66797
c2.95996 3.14062 5.91309 6.11816 8.46484 9.49219c5.22266 6.53125 9.61719 13.4355 13.1113 20.6631c1.84863 3.45215 3.34961 7.41406 4.82617 11.0107c1.47754 3.53613 2.75586 7.44434 3.94434 11.0762c1.21875 3.53613 2.38379 7.11426 3.37402 10.6016
c1.11133 3.60254 2.05371 6.71777 2.83398 9.31152c0.942383 2.5459 1.50098 5.2168 2.0166 6.82031z" />
    <glyph glyph-name="uniF11E" unicode="&#xf11e;" 
d="M375.467 174.935v-17.0664v-17.0674c0 -4.70117 3.82324 -8.5332 8.5332 -8.5332s8.5332 3.83203 8.5332 8.5332v34.1338c0 28.2363 -22.9629 51.2002 -51.2002 51.2002c-28.2363 0 -51.1992 -22.9639 -51.1992 -51.2002v-25.6006
c0 -28.2363 22.9629 -51.1992 51.1992 -51.1992h42.667c4.70996 0 8.5332 3.83105 8.5332 8.5332h17.0664c0 -14.1143 -11.4854 -25.6006 -25.5996 -25.6006h-42.667c-37.6406 0 -68.2666 30.627 -68.2666 68.2666v25.6006c0 37.6406 30.626 68.2666 68.2666 68.2666
s68.2666 -30.626 68.2666 -68.2666v-34.1338c0 -14.1143 -11.4854 -25.5996 -25.5996 -25.5996c-10.2314 0 -19.0127 6.0752 -23.1084 14.7715c-5.54688 -3.90039 -12.2705 -6.23828 -19.5586 -6.23828c-18.8242 0 -34.1328 15.3086 -34.1328 34.1338v17.0664
c0 18.8242 15.3086 34.1328 34.1328 34.1328c18.8252 0 34.1338 -15.3086 34.1338 -34.1328zM358.4 157.868v17.0664c0 9.41211 -7.65527 17.0664 -17.0674 17.0664s-17.0664 -7.6543 -17.0664 -17.0664v-17.0664c0 -9.41309 7.6543 -17.0674 17.0664 -17.0674
s17.0674 7.6543 17.0674 17.0674zM262.989 -25.9062l3.26758 -16.751c-5.78516 -1.12598 -11.6738 -2.03906 -17.5186 -2.72168l-1.96289 16.9473c5.40137 0.630859 10.8545 1.48438 16.2139 2.52539zM230.392 -29.7031l0.682617 -17.0498
c-3.05469 -0.119141 -6.12695 -0.179688 -9.20801 -0.179688c-2.8584 0 -5.69141 0.0517578 -8.51562 0.154297l0.630859 17.0576c5.41895 -0.196289 10.957 -0.1875 16.4102 0.0175781zM149.828 -17.3643c5.12891 -1.84277 10.3848 -3.50684 15.625 -4.94043
l-4.49707 -16.4609c-5.6748 1.54395 -11.3584 3.34473 -16.8877 5.33301zM181.436 -26.0342c5.33398 -1.03223 10.7861 -1.86035 16.2051 -2.47461l-1.91992 -16.9561c-5.8623 0.666016 -11.751 1.56152 -17.5107 2.6709zM119.928 -3.95801
c4.82129 -2.62012 9.76172 -5.07812 14.7031 -7.29688l-6.99805 -15.5645c-5.33301 2.39844 -10.6748 5.05176 -15.8633 7.88477zM68.002 35.7812c3.80566 -3.96777 7.77441 -7.7998 11.8018 -11.3916l-11.3662 -12.7324c-4.35254 3.88281 -8.63574 8.02148 -12.749 12.2969
zM92.459 13.9189c4.30859 -3.30273 8.80566 -6.48535 13.3887 -9.46387l-9.30176 -14.3096c-4.94922 3.2168 -9.81348 6.66406 -14.4727 10.2227zM294.588 -17.1338l5.81934 -16.043c-5.53809 -2.01367 -11.2207 -3.83105 -16.8877 -5.40137l-4.56445 16.4434
c5.25586 1.45996 10.5127 3.14062 15.6328 5.00098zM351.863 14.3711l10.4365 -13.5078c-4.625 -3.56738 -9.48047 -7.03223 -14.4385 -10.2744l-9.35254 14.2764c4.59082 3.01172 9.0791 6.20312 13.3545 9.50586zM375.739 35.79l12.2969 -11.8359
c-3.89941 -4.05371 -7.9873 -8.00391 -12.1426 -11.7422l-11.418 12.6807c3.84863 3.46484 7.6377 7.12598 11.2637 10.8975zM324.438 -3.58301l8.23438 -14.9502c-5.12793 -2.82422 -10.4619 -5.49512 -15.8379 -7.94434l-7.06543 15.5391
c4.99219 2.26074 9.92383 4.73535 14.6689 7.35547zM194.995 429.381l1.96289 -16.9463c-5.40137 -0.631836 -10.8545 -1.48535 -16.2139 -2.52637l-3.26758 16.751c5.78516 1.12598 11.6729 2.03906 17.5186 2.72168zM212.659 430.755
c5.89648 0.222656 11.8525 0.239258 17.7236 0.0263672l-0.630859 -17.0586c-5.42773 0.205078 -10.9658 0.196289 -16.4102 -0.0166016zM160.213 422.58l4.56543 -16.4434c-5.25586 -1.45898 -10.5127 -3.14062 -15.6328 -5.00098l-5.81934 16.043
c5.53809 2.01367 11.2207 3.83105 16.8867 5.40137zM126.899 410.48l7.06543 -15.54c-4.99219 -2.26074 -9.92383 -4.73535 -14.6689 -7.35547l-8.23438 14.9502c5.12793 2.8252 10.4619 5.49609 15.8379 7.94531zM282.777 422.768
c5.6748 -1.54395 11.3584 -3.34473 16.8877 -5.33301l-5.76855 -16.0596c-5.12891 1.84277 -10.3848 3.50684 -15.624 4.94043zM248.013 429.467c5.8623 -0.666016 11.751 -1.56152 17.5107 -2.6709l-3.21777 -16.7686c-5.33301 1.0332 -10.7861 1.86035 -16.2041 2.47461z
M95.8721 393.413l9.35254 -14.2764c-4.59082 -3.01172 -9.0791 -6.20312 -13.3545 -9.50586l-10.4365 13.5088c4.625 3.56641 9.48047 7.03125 14.4385 10.2734zM347.188 393.857c4.94922 -3.21777 9.81348 -6.66504 14.4727 -10.2236l-10.3857 -13.5508
c-4.30859 3.30273 -8.80566 6.48535 -13.3887 9.46387zM375.296 372.345c4.35254 -3.88281 8.63574 -8.02148 12.749 -12.2969l-12.3135 -11.8271c-3.80566 3.96777 -7.77441 7.7998 -11.8018 11.3926zM67.8398 371.799l11.418 -12.6895
c-3.84863 -3.46484 -7.6377 -7.125 -11.2646 -10.8887l-12.2959 11.8359c3.89941 4.05371 7.9873 8.00391 12.1426 11.7422zM316.101 410.821c5.33301 -2.39746 10.6748 -5.05176 15.8633 -7.88477l-8.1582 -14.9756c-4.82129 2.61914 -9.76172 5.07715 -14.7031 7.2959z
M512 320.001h-68.2666v-17.0664h42.667v-17.0664h-42.667v-17.0674h17.0664v-17.0664h-17.0664v-162.134c0 -23.5264 -19.1406 -42.666 -42.667 -42.666h-358.399c-23.5264 0 -42.667 19.1396 -42.667 42.666v238.934c0 4.71094 3.81445 8.5332 8.5332 8.5332h418.134
h8.5332h76.7998v-17.0664zM400.299 320.001h-356.864l178.432 -92.7832zM426.667 89.6006v224.88l-200.866 -104.448c-1.2373 -0.640625 -2.58594 -0.964844 -3.93457 -0.964844c-1.34766 0 -2.69629 0.324219 -3.93359 0.964844l-200.866 104.448v-224.88
c0 -14.1133 11.4863 -25.5996 25.6006 -25.5996h358.399c14.1143 0 25.6006 11.4863 25.6006 25.5996zM34.1338 81.0674v17.0674h17.0664v-17.0674h-17.0664zM68.2666 81.0674v17.0674h17.0664v-17.0674h-17.0664zM102.4 81.0674v17.0674h17.0664v-17.0674h-17.0664z" />
    <glyph glyph-name="uniF10D" unicode="&#xf10d;" 
d="M458.383 386.054c19.5391 0 35.3818 -15.8408 35.3818 -35.3818v-379.29c0 -19.5439 -15.8418 -35.3818 -35.3818 -35.3818h-404.766c-19.54 0 -35.3818 15.8379 -35.3818 35.3818v379.29c0 19.541 15.8418 35.3818 35.3818 35.3818h38.9199v26.5645
c0 19.541 15.8408 35.3818 35.3818 35.3818h1.41504c19.54 0 35.3818 -15.8408 35.3818 -35.3818v-26.5645h182.568v26.5645c0 19.541 15.8418 35.3818 35.3818 35.3818h1.41504c19.541 0 35.3818 -15.8408 35.3818 -35.3818v-26.5645h38.9199zM434.323 -8.09668v287.298
h-356.646v-287.298h356.646zM126.151 149.189c-3.12695 0 -5.66113 2.53516 -5.66113 5.66113v61.5615c0 3.12598 2.53418 5.66113 5.66113 5.66113h61.5605c3.12695 0 5.66113 -2.53516 5.66113 -5.66113v-61.5615c0 -3.12598 -2.53418 -5.66113 -5.66113 -5.66113
h-61.5605zM225.22 149.189c-3.12695 0 -5.66113 2.53516 -5.66113 5.66113v61.5615c0 3.12598 2.53418 5.66113 5.66113 5.66113h61.5605c3.12695 0 5.66113 -2.53516 5.66113 -5.66113v-61.5615c0 -3.12598 -2.53418 -5.66113 -5.66113 -5.66113h-61.5605zM324.288 149.189
c-3.12695 0 -5.66113 2.53516 -5.66113 5.66113v61.5615c0 3.12598 2.53418 5.66113 5.66113 5.66113h61.5605c3.12695 0 5.66113 -2.53516 5.66113 -5.66113v-61.5615c0 -3.12598 -2.53418 -5.66113 -5.66113 -5.66113h-61.5605zM126.151 50.1211
c-3.12695 0 -5.66113 2.53516 -5.66113 5.66113v61.5615c0 3.12598 2.53418 5.66113 5.66113 5.66113h61.5605c3.12695 0 5.66113 -2.53516 5.66113 -5.66113v-61.5615c0 -3.12598 -2.53418 -5.66113 -5.66113 -5.66113h-61.5605zM225.22 50.1211
c-3.12695 0 -5.66113 2.53516 -5.66113 5.66113v61.5615c0 3.12598 2.53418 5.66113 5.66113 5.66113h61.5605c3.12695 0 5.66113 -2.53516 5.66113 -5.66113v-61.5615c0 -3.12598 -2.53418 -5.66113 -5.66113 -5.66113h-61.5605zM324.288 50.1211
c-3.12695 0 -5.66113 2.53516 -5.66113 5.66113v61.5615c0 3.12598 2.53418 5.66113 5.66113 5.66113h61.5605c3.12695 0 5.66113 -2.53516 5.66113 -5.66113v-61.5615c0 -3.12598 -2.53418 -5.66113 -5.66113 -5.66113h-61.5605z" />
    <glyph glyph-name="uniF109" unicode="&#xf109;" 
d="M256.006 127.926l171.155 61.4219l0.714844 -105.356s-76.9541 -47.792 -171.87 -47.792c-90.9023 0 -171.276 40.5195 -171.276 40.5195l-0.587891 112.717zM479.861 232.48v-116.153h10.5v-52.4375h-42.8145v52.4375h12.917v109.047l-204.458 -74.876l-256.006 93.7461
l256.006 103.557l255.994 -103.557z" />
    <glyph glyph-name="uniF118" unicode="&#xf118;" 
d="M439.696 202.039c3.29199 -2.2793 5.2666 -6.02246 5.2666 -10.0332s-1.96289 -7.75293 -5.2666 -10.0332l-353.532 -243.814c-2.08398 -1.42676 -4.49805 -2.1582 -6.92383 -2.1582c-1.93848 0 -3.88867 0.462891 -5.66895 1.38965
c-4.01074 2.10938 -6.52246 6.2666 -6.52246 10.8008v487.631c0 4.53516 2.51172 8.67969 6.52246 10.7891c3.99902 2.08496 8.85059 1.81641 12.5928 -0.755859z" />
    <glyph glyph-name="uniF117" unicode="&#xf117;" 
d="M404.642 130.834l59.3252 -59.541c10.9141 -10.8066 16.6416 -23.666 16.6416 -37.0654c0 -13.292 -5.61914 -26.2588 -16.3174 -37.3887c-4.64648 -4.86328 -9.40137 -9.50977 -14.0479 -13.9404c-6.80762 -6.5918 -13.292 -12.751 -18.9111 -19.5586
c-0.107422 -0.216797 -0.324219 -0.324219 -0.431641 -0.541016c-16.4258 -17.8301 -37.3896 -26.7988 -62.3516 -26.7988c-2.16113 0 -4.53809 0.108398 -6.80762 0.21582c-37.0654 2.37793 -70.2402 16.3174 -95.0938 28.0957
c-65.0527 31.4463 -122.001 76.0752 -169.332 132.592c-39.0098 46.8984 -65.1611 90.6631 -82.667 137.886c-7.13184 19.2344 -16.4248 48.627 -13.8311 80.1816c1.72852 19.5586 9.61719 36.416 23.4492 50.248l36.7402 37.0645
c0.108398 0.108398 0.108398 0.108398 0.21582 0.216797c10.8066 10.374 23.5576 15.8848 36.7412 15.8848s25.7188 -5.51074 36.2002 -15.8848c7.02441 -6.4834 13.832 -13.3994 20.3154 -20.0996c3.24219 -3.45801 6.7002 -6.91602 10.0498 -10.2656l29.501 -29.501
c22.6924 -22.6924 22.6924 -52.085 0 -74.7783c-3.02539 -3.02539 -6.05176 -6.15918 -9.07715 -9.18457c-7.99609 -8.10547 -16.209 -16.5342 -25.0703 -24.6387c6.5918 -14.5879 15.6689 -28.96 29.1768 -46.0342c27.8799 -34.2549 56.9482 -60.7295 88.9346 -81.0449
c3.13379 -1.94531 6.80762 -3.78223 10.6973 -5.72754c2.70215 -1.40527 5.51172 -2.80957 8.32129 -4.32227l34.1475 34.0391c10.9141 10.9141 23.665 16.6416 36.9561 16.6416c13.4004 0 26.043 -5.83594 36.5254 -16.75zM443.327 17.0459
c11.0225 11.4541 11.0225 22.8008 -0.108398 33.8232l-59.541 59.541l-0.216797 0.216797c-3.34961 3.67383 -8.86035 7.88867 -15.5605 7.88867c-6.80762 0 -12.6426 -4.43066 -16.3174 -8.10547l-36.957 -36.9561c-1.83691 -1.83789 -7.45605 -7.45703 -16.4248 -7.45703
c-3.56641 0 -7.02441 0.865234 -10.6982 2.70215c-0.431641 0.21582 -0.864258 0.540039 -1.29688 0.755859c-3.13379 1.94531 -6.80762 3.78223 -10.6982 5.72754c-4.32227 2.16113 -8.86035 4.43066 -13.291 7.24023c-34.6875 21.9365 -66.1338 50.5723 -95.958 87.3135
l-0.108398 0.107422c-16.4248 20.8564 -27.2314 38.3623 -34.9033 56.9482c-0.108398 0.324219 -0.216797 0.648438 -0.324219 0.972656c-1.94531 6.16016 -3.6748 15.2373 5.61914 24.5303c0.107422 0.21582 0.324219 0.324219 0.540039 0.540039
c9.40137 8.42871 18.0459 17.0742 27.123 26.3672c3.13379 3.02539 6.16016 6.15918 9.29395 9.29297c11.4541 11.4551 11.4541 22.0449 0 33.499l-29.501 29.501c-3.45801 3.56543 -6.91602 7.02344 -10.2656 10.4814c-6.5918 6.80859 -12.8594 13.1836 -19.4512 19.3428
c-0.108398 0.108398 -0.21582 0.216797 -0.324219 0.324219c-3.45801 3.45801 -8.96875 7.56445 -15.7773 7.56445c-5.51074 0 -11.1299 -2.70117 -16.4248 -7.67188l-36.8486 -36.8486c-8.96973 -8.96973 -13.832 -19.4512 -14.9131 -32.0947
c-1.62109 -19.7754 2.05371 -40.7393 12.1035 -67.6465c16.3164 -44.0889 40.9551 -85.1514 77.8037 -129.564c44.6289 -53.2744 98.3359 -95.3105 159.498 -124.919c22.3691 -10.6982 52.1934 -23.2334 84.2881 -25.2861
c1.62012 -0.108398 3.34961 -0.108398 4.9707 -0.108398c16.8574 0 29.7168 5.51074 40.6309 17.1816c6.69922 7.88867 13.832 14.9121 20.8555 21.6123c4.64648 4.53906 8.96875 8.64453 13.1836 13.1836c-0.108398 -0.108398 -0.108398 0 0 0zM276.697 326.209
c-7.99707 1.29688 -13.1836 8.96875 -11.7793 16.8574c1.40527 7.88867 8.86133 13.1836 16.8574 11.8867c34.2559 -5.83594 65.4854 -22.0449 90.2314 -46.791s40.9551 -55.9756 46.79 -90.2305c1.29688 -7.99707 -3.99805 -15.5605 -11.9941 -16.8574
c-0.864258 -0.108398 -1.62109 -0.216797 -2.48535 -0.216797c-7.02441 0 -13.1836 4.9707 -14.3721 12.1035c-4.86328 28.3115 -18.1543 54.0303 -38.6865 74.5615c-20.5312 20.5322 -46.25 33.9316 -74.5615 38.6865zM511.405 222.146
c1.40527 -7.8877 -3.99805 -15.4521 -11.8867 -16.6406c-0.864258 -0.108398 -1.62012 -0.216797 -2.48535 -0.216797c-7.02344 0 -13.1836 4.9707 -14.3721 12.1035c-8.53613 50.3564 -32.3096 96.2822 -68.835 132.807c-36.5244 36.417 -82.4502 60.2979 -132.807 68.835
c-7.99707 1.4043 -13.292 8.86133 -11.9951 16.8574c1.40527 7.88867 8.86133 13.292 16.75 11.8867c56.4072 -9.61719 107.736 -36.2002 148.584 -77.0479c40.8467 -40.8467 67.4297 -92.1758 77.0469 -148.584z" />
    <glyph glyph-name="uniF104" unicode="&#xf104;" 
d="M157.897 262.093c3.21777 -2.6084 3.71094 -7.33203 1.10156 -10.5488c-5.84766 -7.20996 -14.2168 -11.3447 -22.9629 -11.3447s-17.1162 4.13477 -22.9639 11.3447c-2.6084 3.2168 -2.11523 7.94043 1.10156 10.5488c3.21582 2.6084 7.93945 2.11621 10.5488 -1.10059
c3.03027 -3.73535 7.04688 -5.79297 11.3135 -5.79297c4.26562 0 8.28223 2.05664 11.3125 5.79297c2.61035 3.21777 7.33203 3.70996 10.5488 1.10059zM101.76 306.613c4.1416 0 7.5 -3.3584 7.5 -7.5v-8.56934c0 -4.1416 -3.3584 -7.5 -7.5 -7.5
c-4.14258 0 -7.5 3.3584 -7.5 7.5v8.56934c0 4.1416 3.35742 7.5 7.5 7.5zM170.312 306.613c4.14258 0 7.50098 -3.3584 7.50098 -7.5v-8.56934c0 -4.1416 -3.3584 -7.5 -7.50098 -7.5s-7.5 3.3584 -7.5 7.5v8.56934c0 4.1416 3.3584 7.5 7.5 7.5zM406.399 219.249
c3.2168 -2.60938 3.70898 -7.33203 1.09961 -10.5498c-5.84668 -7.20996 -14.2158 -11.3447 -22.9619 -11.3447s-17.1162 4.13379 -22.9619 11.3447c-2.60938 3.21777 -2.11719 7.94043 1.09961 10.5498c3.21777 2.6084 7.94141 2.11523 10.5498 -1.10156
c3.0293 -3.73438 7.04688 -5.79297 11.3125 -5.79297s8.2832 2.05859 11.3135 5.79297c2.6084 3.21777 7.33203 3.70996 10.5488 1.10156zM350.261 263.768c4.14258 0 7.5 -3.35742 7.5 -7.5v-8.56836c0 -4.14258 -3.35742 -7.5 -7.5 -7.5c-4.1416 0 -7.5 3.35742 -7.5 7.5
v8.56836c0 4.14258 3.3584 7.5 7.5 7.5zM418.813 263.768c4.1416 0 7.5 -3.35742 7.5 -7.5v-8.56836c0 -4.14258 -3.3584 -7.5 -7.5 -7.5c-4.14258 0 -7.5 3.35742 -7.5 7.5v8.56836c0 4.14258 3.3584 7.5 7.5 7.5zM491.129 115.453
c12.6807 -5.07227 20.874 -17.1738 20.8711 -30.832v-42.5791c0 -1.99023 -0.790039 -3.89746 -2.19727 -5.30469c-1.40723 -1.40527 -3.31348 -2.19531 -5.30273 -2.19531h-1.06934v-69.6221c0 -4.1416 -3.35742 -7.5 -7.5 -7.5c-4.1416 0 -7.5 3.3584 -7.5 7.5v69.6221
h-19.2764v-69.6221c0 -4.1416 -3.35742 -7.5 -7.5 -7.5c-4.1416 0 -7.5 3.3584 -7.5 7.5v94.2598c0 4.1416 3.3584 7.5 7.5 7.5c4.14258 0 7.5 -3.3584 7.5 -7.5v-9.6377h26.7764h1.06934v35.0791c0 7.4873 -4.49219 14.123 -11.4453 16.9043l-28.6289 11.4502
c-10.0381 -31.2588 -39.1797 -52.7275 -72.3916 -52.7275c-21.0371 0 -40.832 8.71582 -55.0049 23.5459c-4.86035 -17.293 -16.4463 -31.7891 -31.7539 -40.4814v-12.2334c0 -0.460938 0.293945 -0.867188 0.731445 -1.01367l27.9775 -9.32617
c13.5811 -4.52539 22.7061 -17.1855 22.7061 -31.502v-24.3164c0 -4.1416 -3.3584 -7.5 -7.5 -7.5c-4.14258 0 -7.5 3.3584 -7.5 7.5v24.3164c0 7.84863 -5.00391 14.79 -12.4492 17.2725l-8.22559 2.74121c-10.8818 -16.2363 -29.1699 -26.124 -48.9463 -26.124
c-19.7549 0 -38.0596 9.89355 -48.9443 26.125l-8.22656 -2.74219c-7.44629 -2.48145 -12.4492 -9.42383 -12.4492 -17.2725v-24.3164c0 -4.1416 -3.3584 -7.5 -7.5 -7.5c-4.14258 0 -7.5 3.3584 -7.5 7.5v24.3164c0 14.3164 9.125 26.9766 22.7061 31.5029l27.9775 9.32617
c0.436523 0.146484 0.730469 0.553711 0.730469 1.01367v12.2334c-20.4443 11.6094 -34.2764 33.5693 -34.2764 58.7129v1.06836h-1.06836c-8.1543 0 -15.3916 3.98438 -19.8789 10.1055c-12.2764 -6.62402 -25.9863 -10.1055 -40.1035 -10.1055
c-39.2959 0 -73.3467 27.4082 -82.3125 64.9502l-25.7471 -7.72363c-7.7627 -2.3291 -12.9766 -9.33594 -12.9766 -17.4395v-76.2012h1.06934h35.3457v27.5615c0 3.60645 -1.05762 7.09863 -3.05762 10.0986l-12.8203 19.2314
c-2.29785 3.44727 -1.36719 8.10352 2.08008 10.4014c3.44531 2.2959 8.10254 1.36523 10.4004 -2.08105l12.8193 -19.2305c3.64844 -5.47168 5.57715 -11.8418 5.57715 -18.4199v-129.321c0 -4.1416 -3.35742 -7.5 -7.5 -7.5c-4.1416 0 -7.5 3.3584 -7.5 7.5v86.7598
h-27.8447v-86.7598c0 -4.1416 -3.3584 -7.5 -7.5 -7.5c-4.14258 0 -7.5 3.3584 -7.5 7.5v86.7598h-1.06934c-4.1416 0 -7.5 3.3584 -7.5 7.5v83.7012c0 14.7783 9.50977 27.5596 23.6641 31.8066l62.0244 18.6074v20.7295c-19.166 14.2383 -32.1426 36.3613 -34.0361 61.541
c-10.0527 3.10547 -17.3779 12.4863 -17.3779 23.5469c0 7.44922 3.32812 14.1318 8.56836 18.6533v41.3301c0 37.21 30.2734 67.4834 67.4834 67.4834h68.5527c15.168 0 28.0879 -10.1016 31.958 -24.4814c11.4229 -7.75 18.3877 -20.6484 18.3877 -34.4326v-49.9004
c5.24121 -4.52246 8.56836 -11.2041 8.56836 -18.6533c0 -11.0605 -7.32422 -20.4414 -17.3779 -23.5469c-0.548828 -7.29102 -2.04395 -14.3174 -4.33008 -20.9805c0.141602 -0.0605469 0.286133 -0.110352 0.423828 -0.178711l48.0605 -24.0293l16.373 8.18652
c1.13672 17.8018 1.83398 36.6055 1.83398 51.9795c0 56.1113 45.6484 101.76 101.759 101.76s101.76 -45.6494 101.76 -101.76c0 -58.7695 8.40918 -118.311 8.49414 -118.904c0.371094 -2.59766 -0.642578 -5.19922 -2.6709 -6.8623
c-0.853516 -0.699219 -20.0732 -16.1416 -60.6562 -25.375c0.297852 -0.15625 0.591797 -0.318359 0.90918 -0.445312zM297.777 290.544c0 -13.7656 -0.451172 -28.6162 -1.33984 -44.2354l16.1934 8.09668c2.32617 1.16309 5.08594 1.03809 7.29688 -0.328125
s3.55762 -3.78027 3.55762 -6.37988v-33.5254c9.20898 -8.94043 16.1875 -19.79 20.5322 -31.6494c11.8604 -8.51074 25.8359 -13.0146 40.5195 -13.0146c16.1084 0 31.2305 5.33984 43.7305 15.4434c12.1494 9.82031 20.7305 23.5625 24.165 38.6963
c1.14551 5.0459 1.72559 10.2539 1.72559 15.4805c0 28.7383 -16.5371 33.3594 -48.2256 39.6504c-16.3965 3.25488 -34.6152 6.87109 -50.8799 16.5088c-3.93555 -9.97168 -13.5879 -23.2451 -37.248 -29.1602c-4.01758 -1.00293 -8.09082 1.43848 -9.09473 5.45703
c-1.00488 4.01855 1.4375 8.09082 5.45703 9.0957c28.2676 7.06738 28.5947 26.8018 28.5947 27.001c0 2.88379 1.65234 5.51074 4.25098 6.75977c2.59961 1.24902 5.68359 0.897461 7.93457 -0.90332c15.5342 -12.4268 35.041 -16.2998 53.9062 -20.0449
c29.6484 -5.88574 60.3057 -11.9717 60.3057 -54.3633c0 -6.34082 -0.706055 -12.666 -2.09863 -18.7988c-4.17578 -18.4062 -14.6045 -35.1133 -29.3633 -47.043c-3.58594 -2.89746 -7.39941 -5.47461 -11.3838 -7.73242v-11.9355
c29.0889 6.36426 46.2969 16.0479 53.0186 20.4453c-1.97168 15.2051 -8.03613 66.1162 -8.03613 116.479c0 47.8398 -38.9189 86.7598 -86.7588 86.7598c-47.8389 0 -86.7598 -38.9199 -86.7598 -86.7598zM308.484 235.563l-27.1436 -13.5723l27.1436 -13.5703v27.1426z
M220.656 235.563v-27.1426l27.1436 13.5703zM179.949 153.44c0 3.71289 0.24707 7.40137 0.727539 11.043c-8.41016 -16.0947 -25.2578 -27.1123 -44.6406 -27.1123c-24.4102 0 -44.8115 17.4648 -49.3828 40.5537l-18.5293 -5.55957
c7.06152 -31.3125 35.2861 -54.2705 67.9111 -54.2705c12.5273 0 24.6631 3.32812 35.3447 9.63965c0 7.16016 3.19922 13.9463 8.56934 18.583v7.12305zM100.69 187.729c0 -0.0351562 0.00195312 -0.0712891 0.00195312 -0.107422
c0.0527344 -19.4443 15.8867 -35.249 35.3438 -35.249c19.4902 0 35.3447 15.8564 35.3447 35.3457v17.3828c-10.7617 -4.96777 -22.7354 -7.74609 -35.3447 -7.74609c-12.6113 0 -24.583 2.77734 -35.3457 7.74707v-17.373zM136.036 212.354
c38.3896 0 69.6211 31.2324 69.6211 69.6211c0 4.14258 3.3584 7.5 7.5 7.5c5.31543 0 9.6377 4.32324 9.6377 9.63867c0 5.31445 -4.32324 9.6377 -9.6377 9.6377h-8.56934c-4.1416 0 -7.5 3.3584 -7.5 7.5c0 4.14258 3.3584 7.5 7.5 7.5h8.56934
c0.359375 0 0.713867 -0.0107422 1.06934 -0.0263672v43.9414c0 9.54102 -5.26172 18.4336 -13.7295 23.21c-1.99316 1.12402 -3.36426 3.0957 -3.72266 5.35547c-1.41309 8.89258 -8.9375 15.3477 -17.8936 15.3477h-68.5518
c-28.9395 0 -52.4834 -23.5439 -52.4834 -52.4834v-35.373c0.354492 0.0146484 0.710938 0.0263672 1.06836 0.0263672h11.7324l6.85938 20.5781c1.01953 3.06348 3.88574 5.12793 7.11328 5.12891c0.667969 0 67.1943 0.206055 99.4756 16.3467
c3.70605 1.85254 8.20996 0.350586 10.0625 -3.35449s0.350586 -8.20898 -3.35449 -10.0615c-30.0869 -15.0439 -83.5156 -17.4678 -100.751 -17.8564l-6.88379 -20.6523c-1.02148 -3.0625 -3.8877 -5.12793 -7.11523 -5.12793h-17.1387
c-5.31445 0 -9.6377 -4.32422 -9.6377 -9.6377c0 -5.31445 4.32422 -9.63867 9.6377 -9.63867c4.14258 0 7.5 -3.35742 7.5 -7.5c0 -38.3887 31.2314 -69.6201 69.6221 -69.6201zM186.38 187.716c0 -0.699219 -0.0234375 -1.39355 -0.0527344 -2.08594
c4.38281 10.6475 10.9297 20.3887 19.3291 28.543v19.7812c-5.29395 -7.65234 -11.8154 -14.3857 -19.2764 -19.9287v-26.3096zM298.55 14.2412l-4.78418 1.5957c-6.57324 2.18945 -10.9883 8.31641 -10.9873 15.2422v5.97852
c-5.7959 -1.62695 -11.8975 -2.51562 -18.207 -2.51562c-6.30859 0 -12.4111 0.888672 -18.207 2.51562v-5.97852c0 -6.92676 -4.41602 -13.0537 -10.9883 -15.2432l-4.7793 -1.59375c8.25977 -10.084 20.6719 -16.1143 33.9736 -16.1143
c13.3184 0 25.7227 6.02637 33.9795 16.1133zM324.555 118.095h8.56934c5.31348 0 9.6377 4.32422 9.6377 9.63867c0 3.41992 -1.80957 6.51367 -4.8418 8.27832c-2.30859 1.34375 -3.72754 3.8125 -3.72754 6.48242v10.9463c0 13.9492 -4.22461 27.458 -11.8789 38.8467
c-0.598633 -0.947266 -1.39941 -1.77246 -2.38477 -2.38184c-1.2041 -0.744141 -2.57129 -1.12012 -3.94238 -1.12012c-1.14648 0 -2.2959 0.263672 -3.35449 0.791992l-48.0605 24.0303l-48.0596 -24.0303c-1.05957 -0.52832 -2.20801 -0.791992 -3.35449 -0.791992
c-1.37109 0 -2.73828 0.375977 -3.94336 1.12012c-0.985352 0.609375 -1.78711 1.43359 -2.38574 2.38184c-7.6543 -11.3887 -11.8779 -24.8975 -11.8779 -38.8467v-0.87207c19.7705 0.791016 74.1426 4.75 108.744 24.5225
c3.5957 2.05469 8.17871 0.805664 10.2334 -2.79102c2.05469 -3.59766 0.804688 -8.17871 -2.79102 -10.2334c-39.499 -22.5713 -99.5986 -26.0605 -118.139 -26.5977c-0.509766 -0.563477 -1.09863 -1.0625 -1.77637 -1.45703
c-3.03027 -1.76367 -4.84082 -4.8584 -4.84082 -8.27832c0 -5.31543 4.32422 -9.63867 9.63867 -9.63867h8.56836c4.14258 0 7.5 -3.35742 7.5 -7.5v-8.56836c0 -28.9395 23.5439 -52.4834 52.4824 -52.4834c28.9395 0 52.4834 23.5439 52.4844 52.4834v0.916992
c-0.000976562 0.0644531 0 0.129883 0 0.194336v7.45703c0 4.14258 3.3584 7.5 7.5 7.5zM384.537 75.25c27.0156 0 50.6855 17.6816 58.4365 43.3105l-16.1729 6.46875c-9.4082 3.7627 -15.4873 12.7432 -15.4873 22.876v10.9834
c-8.58691 -2.86426 -17.6309 -4.37891 -26.7764 -4.37891c-12.5635 0 -24.7061 2.71094 -35.8271 7.9248c0.319336 -2.97461 0.482422 -5.97656 0.482422 -8.99512v-7.12305c5.37012 -4.63672 8.56836 -11.4238 8.56836 -18.584c0 -13.5273 -10.96 -24.54 -24.4658 -24.6338
c11.2139 -17.2773 30.4785 -27.8486 51.2422 -27.8486zM286.434 90.7129c3.21582 -2.60938 3.70898 -7.33301 1.10156 -10.5498c-5.84863 -7.20898 -14.2178 -11.3447 -22.9639 -11.3447s-17.1152 4.13672 -22.9629 11.3457
c-2.60938 3.2168 -2.11621 7.93945 1.10059 10.5488s7.94043 2.11621 10.5498 -1.10059c3.0293 -3.73633 7.04785 -5.79297 11.3125 -5.79297c4.26562 0 8.28223 2.05664 11.3135 5.79297c2.6084 3.21777 7.33203 3.70996 10.5488 1.10059zM231.501 119.13
c0 4.14258 3.3584 7.5 7.5 7.5c4.14258 0 7.5 -3.35742 7.5 -7.5c0 -4.1416 -3.35742 -7.5 -7.5 -7.5c-4.1416 0 -7.5 3.3584 -7.5 7.5zM282.502 119.13c0 4.14258 3.35742 7.5 7.5 7.5c4.1416 0 7.5 -3.35742 7.5 -7.5c0 -4.1416 -3.3584 -7.5 -7.5 -7.5
c-4.14258 0 -7.5 3.3584 -7.5 7.5z" />
    <glyph glyph-name="uniF110" unicode="&#xf110;" 
d="M428.661 94.4219c0.213867 -5.63867 0.743164 -46.2617 -26.2148 -74.7959c-13.6768 -14.4766 -31.6475 -23.2354 -53.5723 -26.1514v-40.3896c0 -9.43555 -7.64941 -17.0869 -17.0869 -17.0869c-9.43555 0 -17.0869 7.65137 -17.0869 17.0869v56.3877
c0 9.43555 7.65137 17.0869 17.0869 17.0869c20.0352 0 35.4521 5.56445 45.8213 16.5371c18.1172 19.1758 16.9277 49.6895 16.9092 49.9922c-0.0185547 0.323242 -0.0273438 0.643555 -0.0273438 0.966797v231.529c0 3.03613 0 11.1064 -14.0303 11.1064
c-14.0332 0 -14.0332 -8.07031 -14.0332 -11.1064v-63.835c0 -9.43457 -7.65039 -17.0869 -17.0879 -17.0869c-9.43555 0 -17.0869 7.65234 -17.0869 17.0869v121.442c0 3.69727 0 9.88574 -14.0332 9.88574c-14.0342 0 -14.0342 -6.18848 -14.0342 -9.88574v-93.248
c0 -9.43555 -7.65137 -17.0869 -17.0869 -17.0869s-17.0869 7.65137 -17.0869 17.0869v113.995c0 3.69727 0 9.88672 -14.0303 9.88672c-14.0342 0 -14.0342 -6.18945 -14.0342 -9.88672v-113.995c0 -9.43555 -7.64941 -17.0869 -17.0869 -17.0869
c-9.43555 0 -17.0869 7.65137 -17.0869 17.0869v93.248c0 3.69727 0 9.88574 -14.0303 9.88574c-14.0332 0 -14.0332 -6.18848 -14.0332 -9.88574v-226.78c0 -9.43555 -7.65039 -17.0879 -17.0879 -17.0879c-9.43652 0 -17.0869 7.65234 -17.0869 17.0879v56.3955
c0 3.03613 0 11.1064 -14.0332 11.1064c-14.0342 0 -14.0342 -8.07031 -14.0342 -11.1064v-117.995c0.297852 -2.83105 2.3877 -19.4941 11.792 -35.5137c12.7539 -21.7246 33.4648 -32.7393 61.5547 -32.7393c9.4375 0 17.0869 -7.65137 17.0869 -17.0869v-56.3877
c0 -9.43555 -7.64941 -17.0869 -17.0869 -17.0869c-9.43555 0 -17.0869 7.65137 -17.0869 17.0869v40.3721c-40.8281 5.30566 -63.0127 29.3213 -74.6982 49.8535c-13.8066 24.2529 -15.626 48.541 -15.6982 49.5645
c-0.0253906 0.393555 -0.0390625 0.788086 -0.0390625 1.18066v118.754c0 26.6611 19.8242 45.2812 48.208 45.2812c4.96191 0 9.6543 -0.581055 14.0332 -1.66309v126.765c0 26.3545 19.374 44.0605 48.208 44.0605c6.79199 0 13.0518 -0.994141 18.6631 -2.83984
c7.37793 14.6367 23.0811 23.5869 43.5752 23.5869c20.4932 0 36.1953 -8.9502 43.5703 -23.5889c5.61328 1.84766 11.8721 2.8418 18.666 2.8418c28.835 0 48.208 -17.7061 48.208 -44.0605v-13.9893c4.37988 1.08105 9.07129 1.66211 14.0342 1.66211
c28.3809 0 48.2041 -18.6201 48.2041 -45.2803v-231.163zM357.678 114.697c0 -48.5996 -39.5361 -88.1377 -88.1357 -88.1357c-48.5967 0 -88.1348 39.5381 -88.1348 88.1357c0 20.209 12.6719 47.6504 38.7383 83.8994c18.0938 25.1592 35.9307 45.0928 36.6807 45.9287
c3.23926 3.61035 7.86328 5.67383 12.7158 5.67383c4.85156 0 9.47656 -2.06348 12.7168 -5.67383c0.751953 -0.835938 18.5869 -20.7695 36.6807 -45.9287c26.0664 -36.249 38.7383 -63.6924 38.7383 -83.8994zM269.542 60.7344c29.7539 0 53.9619 24.207 53.9619 53.9609
c0 19.252 -28.416 61.1279 -53.9561 92.166c-25.542 -31.0557 -53.9668 -72.9482 -53.9668 -92.166c0 -29.7539 24.208 -53.9609 53.9609 -53.9609z" />
    <glyph glyph-name="uniF11B" unicode="&#xf11b;" 
d="M506.231 166.552c7.69043 -7.69141 7.69141 -20.1592 0.000976562 -27.8516c-7.69141 -7.68848 -20.1602 -7.68945 -27.8496 -0.000976562l-45.1523 45.1514v-188.773c0 -10.875 -8.81836 -19.6924 -19.6924 -19.6924h-315.076
c-10.875 0 -19.6924 8.81738 -19.6924 19.6924v188.776l-45.1533 -45.1533c-3.84473 -3.84668 -8.88379 -5.76855 -13.9238 -5.76855s-10.0791 1.92188 -13.9248 5.76855c-7.68945 7.69141 -7.68945 20.1602 0 27.8496l236.298 236.297
c7.69141 7.69043 20.1602 7.69043 27.8486 0.000976562l76.6709 -76.6641v62.7393c0 10.875 8.81543 19.6924 19.6924 19.6924c10.874 0 19.6924 -8.81738 19.6924 -19.6924v-102.118zM265.093 85.6387c33.7373 29.8389 55.7842 49.9482 55.7832 74.6309
c0 20.085 -15.584 35.6689 -35.6689 35.6689c-11.0615 0 -22.0781 -5.19531 -29.208 -13.623c-7.13184 8.42773 -18.1562 13.623 -29.207 13.623c-20.085 0 -35.6689 -15.584 -35.6689 -35.6689c0 -27.9053 22.0459 -44.793 55.7832 -74.6309l9.09277 -7.85254z" />
    <glyph glyph-name="uniF112" unicode="&#xf112;" 
d="M494.2 -40c0 -7.2002 -3.7998 -12.4004 -10.5 -12.5h-456h-0.799805c-4.90039 0.400391 -9.60059 4.5 -9.60059 10.4004v303c0 3.19922 3 7 7.7002 9.89941l79.7002 57.9004v62.3994c0 5.2002 4.2002 10.4004 10.3994 10.4004h89.7002l45.7002 33.2998
c3.2002 2.10059 8.40039 2.10059 11.5 0l45.7002 -33.2998h89.7002c5.19922 0 10.3994 -4.2002 10.3994 -10.4004v-63.0996l78.7002 -57.0996c3.7998 -2.90039 7.7002 -6.80078 7.7002 -9.90039v-301zM474.4 242.3l-172.101 -125.8l172.101 -137.8v263.6zM466.7 260.6
l-58.9004 43.3008v-86.2002zM255.8 415.1l-18.3994 -13.5h36.6992zM387 380.7h-262.4v-178.2l131.2 -95.5996l131.2 95.5996v178.2zM37.2002 242.3v-264.399l172.1 138.6zM104.8 216.9v87.8994l-60.3994 -43.8994zM55.9004 -32.5996h400.699l-171.1 136.899l-23.5 -17.2002
c-4.59961 -3.39941 -8 -3.39941 -12.5 0l-23.5 17.2002zM186.1 309.9v19.7998h140.5v-19.7998h-140.5zM186.1 246.4v19.7998h140.5v-19.7998h-140.5zM186.1 182.9v19.7998h140.5v-19.7998h-140.5z" />
    <glyph glyph-name="uniF100" unicode="&#xf100;" 
d="M462.315 228.225c8.83789 -7.12988 13.291 -18.8271 10.6572 -30.7158l-14.6494 -65.9229c-4.14355 -18.6445 -14.6406 -35.4854 -29.5566 -47.4189l-22.7344 -18.2227c-5.04785 -4.04492 -10.4482 -7.66309 -16.1094 -10.8184v-81.1328
c0 -5.16113 -4.18262 -9.34277 -9.34277 -9.34277s-9.34375 4.18164 -9.34375 9.34277v72.7529c-4.06641 -1.41309 -8.20898 -2.60352 -12.4004 -3.55273c-0.695312 -0.158203 -1.39062 -0.234375 -2.07324 -0.234375c-4.26758 0 -8.12109 2.94531 -9.10449 7.28125
c-1.13965 5.0332 2.01562 10.0371 7.04883 11.1768c14.4053 3.2627 28.1104 9.87012 39.6367 19.1084l22.7412 18.2275c11.6064 9.28613 19.7705 22.3838 22.9941 36.8867l14.6494 65.9219c1.44629 6.50879 -2.4873 12.875 -8.95703 14.4922
c-5.38379 1.34668 -10.96 0.494141 -15.6982 -2.40137c-4.7373 -2.89258 -8.04102 -7.46387 -9.30371 -12.8701l-10.5391 -45.167c-1.15039 -4.93652 -6.02344 -8.05078 -10.9902 -7.02637c-0.296875 0.0595703 -31.8906 6.20703 -50.4502 -10.291
c-3.8584 -3.43066 -9.76367 -3.07812 -13.1904 0.775391c-3.42773 3.85742 -3.08105 9.76172 0.776367 13.1904c18.4844 16.4297 44.1025 16.9502 57.5791 15.8301l8.0918 34.6816c-9.49512 5.19922 -32.3115 14.6973 -68.2529 11.543
c-1.91211 -0.165039 -3.86523 -0.371094 -5.80566 -0.604492c-5.125 -0.605469 -9.77637 3.03516 -10.3955 8.15527c-0.619141 5.12402 3.0332 9.77832 8.15527 10.3975c0.405273 0.0488281 0.80957 0.0810547 1.2168 0.126953
c3.22754 7.57129 9.73438 24.5547 14.4023 47.832c-2.10547 0.152344 -4.24414 -0.172852 -6.26367 -0.999023c-3.96289 -1.62402 -6.92188 -4.92969 -8.11523 -9.07324c-4.98926 -17.3135 -13.8701 -41.8047 -27.8271 -60.166
c-50.6699 -66.6523 -10.3398 -147.469 -9.92578 -148.276c0.672852 -1.31738 1.02441 -2.77344 1.02441 -4.25293v-112.115c0 -5.16113 -4.18359 -9.34277 -9.34277 -9.34277c-5.16016 0 -9.34375 4.18164 -9.34375 9.34277v109.987
c-2.96094 6.37402 -11.457 26.3682 -15.0654 52.9248c-0.185547 1.35938 -0.353516 2.71484 -0.505859 4.06641c-3.22266 -28.5605 -12.4443 -50.2803 -15.5723 -56.9961v-109.986c0 -5.16113 -4.18359 -9.34277 -9.34277 -9.34277
c-5.16016 0 -9.34375 4.18164 -9.34375 9.34277v112.116c0 1.47949 0.350586 2.93652 1.02441 4.25293c0.170898 0.336914 17.7061 35.4229 15.4814 77.9512c-0.655273 12.6094 -2.99121 24.752 -6.94141 36.0967c-1.79688 5.14062 -3.98047 10.2539 -6.48828 15.1914
c-0.0185547 0.0380859 -0.0449219 0.0693359 -0.0634766 0.106445c-2.44629 4.7959 -5.24414 9.49121 -8.31738 13.957c-1.22559 1.76855 -2.40918 3.40234 -3.60449 4.97363c-0.00195312 0.00195312 -0.00292969 0.00292969 -0.00390625 0.00585938
c-13.9395 18.3467 -22.8223 42.8428 -27.8193 60.1631c-1.19629 4.1416 -4.15527 7.44727 -8.12012 9.07031c-2.02051 0.826172 -4.15625 1.14746 -6.26465 0.993164c4.65332 -23.2344 11.1562 -40.208 14.3975 -47.8105
c0.463867 -0.0556641 0.914062 -0.0976562 1.38965 -0.164062c5.11133 -0.708984 8.67969 -5.42773 7.96973 -10.5391c-0.708984 -5.10938 -5.42871 -8.67773 -10.5391 -7.96875c-1.75586 0.243164 -3.5293 0.398438 -5.4082 0.5625l-0.224609 0.0195312
c-0.03125 0.00292969 -0.0644531 0.00585938 -0.0957031 0.00878906c-0.0859375 0.00878906 -0.172852 0.015625 -0.259766 0.0244141c-5.74023 0.490234 -11.4375 0.678711 -16.9326 0.572266c-5.35742 -0.100586 -10.6396 -0.5 -15.71 -1.18848
c-5.12988 -0.696289 -10.0938 -1.67871 -14.7568 -2.92188c-4.96582 -1.31641 -9.67188 -2.93457 -14.002 -4.82031c-2.6084 -1.13477 -4.77051 -2.23047 -6.50391 -3.1875l8.16699 -35.0059c12.1807 0.655273 35.0654 0.0986328 55.582 -10.4727
c4.58691 -2.3623 6.38867 -7.99707 4.02637 -12.584c-1.65723 -3.21875 -4.92578 -5.06543 -8.31348 -5.06543c-1.44141 0 -2.90234 0.334961 -4.27148 1.04004c-23.6826 12.2002 -52.5293 7.84082 -52.8174 7.79688c-4.83398 -0.761719 -9.44141 2.33984 -10.5527 7.10547
l-10.5391 45.1719c-0.188477 0.811523 -0.439453 1.61035 -0.731445 2.39258c-0.0888672 0.204102 -0.171875 0.410156 -0.245117 0.619141c-2.16406 5.35645 -6.44629 9.5459 -11.8359 11.5635c-3.91113 1.47559 -8.19922 1.69727 -12.1729 0.698242
c-0.675781 -0.170898 -1.34473 -0.395508 -1.97168 -0.666016c-1.79004 -0.783203 -3.41113 -2.03711 -4.64258 -3.61328c-0.0234375 -0.0292969 -0.0507812 -0.0566406 -0.0761719 -0.0869141c-0.000976562 -0.000976562 -0.00390625 -0.00292969 -0.00488281 -0.00585938
c-2.22949 -2.88965 -3.06055 -6.57422 -2.27051 -10.124l14.6367 -65.9277c3.22754 -14.5039 11.3906 -27.6006 22.9873 -36.8721l22.7529 -18.2305c5.55762 -4.45605 11.5791 -8.29297 17.8965 -11.4062c6.91504 -3.41016 14.2305 -6.00586 21.7471 -7.71484
c5.03125 -1.14453 8.18359 -6.15039 7.03906 -11.1826c-0.985352 -4.33398 -4.83887 -7.27441 -9.10254 -7.27441c-0.685547 0 -1.38184 0.0761719 -2.08008 0.234375c-4.19238 0.953125 -8.3291 2.14648 -12.3906 3.55469v-72.752
c0 -5.16113 -4.18359 -9.34277 -9.34375 -9.34277c-5.15918 0 -9.34277 4.18164 -9.34277 9.34277v81.1152c-5.63672 3.14648 -11.0391 6.77832 -16.1084 10.8428l-22.7451 18.2236c-14.9053 11.9189 -25.4014 28.7549 -29.5518 47.4053l-14.6387 65.9287
c-2.0166 9.06738 0.12207 18.4717 5.87012 25.7939c0.0302734 0.0380859 0.0615234 0.0703125 0.0917969 0.105469c0.0742188 0.0917969 0.15332 0.177734 0.230469 0.265625c1.33301 1.64648 2.83301 3.14746 4.4707 4.48438
c-6.19824 22.7129 -10.0449 47.0244 -11.3955 72.4189c-0.40332 7.63184 1.90723 15.1748 6.50684 21.2393c5.76758 7.60742 14.5381 12.2607 24.0635 12.7666c0.407227 0.0214844 0.8125 0.0283203 1.2168 0.0341797c0.769531 3.54297 2.13379 6.94922 4.0918 10.0791
c5.64355 8.97266 15.3018 14.5107 25.8457 14.835c11.1846 0.385742 21.2803 -5.09473 27.1885 -13.8789c2.34863 0.780273 4.80469 1.26074 7.31543 1.39844c15.4805 0.820312 30.2969 -12.4287 31.1328 -27.7949v-0.00488281
c0.368164 -6.8291 1.03027 -13.7031 1.92285 -20.5459c5.47656 0.688477 11.0977 -0.0273438 16.375 -2.18652c9.2832 -3.80078 16.207 -11.5215 18.9951 -21.1846c6.44043 -22.3232 15.2285 -41.5146 24.7441 -54.0371
c0.00195312 -0.000976562 0.00195312 -0.000976562 0.00292969 -0.00195312c1.36328 -1.79395 2.70605 -3.64844 4.10547 -5.66699c3.46094 -5.02637 6.59961 -10.29 9.36328 -15.665c0.0654297 -0.114258 0.131836 -0.229492 0.192383 -0.34668
c0.015625 -0.0263672 0.0322266 -0.0517578 0.046875 -0.0810547c2.91016 -5.71777 5.44434 -11.6484 7.53223 -17.627c3.42871 -9.8457 5.79102 -20.1855 7.06543 -30.8535c3.11816 25.8682 12.6357 49.6738 28.2705 70.2412
c9.52832 12.5332 18.3164 31.7217 24.748 54.0322c2.78516 9.66602 9.70605 17.3887 18.9873 21.1895c5.28613 2.16504 10.917 2.87988 16.4043 2.18652c0.854492 6.52637 1.51953 13.3848 1.90625 20.5479c0.826172 15.3662 15.665 28.6201 31.1113 27.7969
c2.52539 -0.136719 4.99023 -0.617188 7.34668 -1.39941c1.30371 1.91699 2.82031 3.70801 4.55273 5.33398c6.16699 5.78516 14.2021 8.80957 22.6436 8.54492c8.43457 -0.260742 16.2773 -3.79785 22.0664 -9.95703c3.99512 -4.24902 6.67773 -9.39746 7.875 -14.9541
c0.392578 -0.00488281 0.785156 -0.0107422 1.17969 -0.0302734c17.8242 -0.949219 31.54 -16.2061 30.5938 -34.0117c-1.34961 -25.3604 -5.19043 -49.6514 -11.3809 -72.3535zM84.9951 232.854c5.42969 -2.0332 10.2754 -5.23535 14.25 -9.29688
c-6.58008 18.7402 -13.2031 45.3545 -15.0186 79.458c-0.286133 5.40918 -3.74316 10.1377 -8.80664 12.0488c-1.77051 0.672852 -3.62891 0.961914 -5.54688 0.857422h-0.000976562c-4.02246 -0.213867 -7.72852 -2.18066 -10.168 -5.39648
c-1.93457 -2.55078 -2.90723 -5.7334 -2.73633 -8.95898c1.23926 -23.2939 4.66309 -45.5957 10.1836 -66.4346c6.01758 0.625977 12.1592 -0.131836 17.8438 -2.27734zM125.658 228.87c1.87109 0.498047 3.79492 0.947266 5.74023 1.37207
c-7.92578 23.2607 -16.1514 56.7998 -17.4336 98.0605c-0.0205078 0.72168 -0.101562 1.4082 -0.248047 2.1123c-1.22656 6.18652 -6.83594 10.665 -13.0908 10.4395c-4.33691 -0.133789 -8.29492 -2.41016 -10.6094 -6.08887
c-1.01465 -1.62207 -1.65039 -3.43262 -1.87402 -5.31152c8.58789 -5.54883 14.1865 -14.9551 14.7422 -25.4453c1.81445 -34.0654 8.67383 -59.9502 15.1426 -77.4385c2.4873 0.834961 5.0293 1.61133 7.63086 2.2998zM160.562 233.604
c1.27051 0.0244141 2.55664 0.0253906 3.84277 0.0224609c-4.33398 11.6113 -9.86523 29.2754 -13.5723 50.8223c-0.078125 0.349609 -0.139648 0.703125 -0.175781 1.06445c-1.82812 10.8242 -3.06055 21.834 -3.64746 32.7354
c-0.282227 5.11133 -6.26953 10.4102 -11.4668 10.1455c-0.985352 -0.0537109 -1.94824 -0.274414 -2.86035 -0.629883c1.38965 -40.4678 9.79395 -72.9277 17.5146 -94.7061c3.41797 0.289062 6.87793 0.480469 10.3652 0.545898zM361.807 233.061
c7.71875 21.7812 16.1182 54.2432 17.5068 94.707c-0.910156 0.352539 -1.87598 0.571289 -2.87012 0.625c-5.17578 0.285156 -11.1797 -5.03418 -11.4551 -10.1436c-2.04492 -37.9707 -11.0615 -67.7979 -17.4287 -84.6094
c5.0166 0.0136719 9.75977 -0.198242 14.2471 -0.579102zM409.11 304.014c0.570312 10.7168 6.34668 19.9492 14.7402 25.3984c-0.317383 2.74805 -1.4873 5.31348 -3.41602 7.36621c-2.37207 2.52148 -5.58301 3.9707 -9.04395 4.07715
c-3.46191 0.118164 -6.74414 -1.12891 -9.26465 -3.49512c-2.53223 -2.37695 -3.98633 -5.59277 -4.09277 -9.05859c-1.2793 -41.2451 -9.5 -74.7822 -17.4229 -98.0469c4.9375 -1.08105 9.38379 -2.34961 13.3643 -3.6875c6.4668 17.4854 13.3232 43.3701 15.1357 77.4463z
M455.037 301.57c0.398438 7.51855 -5.3916 13.958 -12.9082 14.3584c-7.50977 0.370117 -13.958 -5.40527 -14.3584 -12.9082c-1.81152 -34.0723 -8.41992 -60.6631 -14.9902 -79.3975c2.23242 2.26367 4.75977 4.27441 7.54883 5.97754
c7.4541 4.55176 15.9951 6.44922 24.5225 5.54102c5.52148 20.8447 8.94531 43.1455 10.1855 66.4287zM336.628 428.603c10.7998 -11.6318 16.4404 -26.9238 15.8799 -43.0547c-0.550781 -15.8984 -7.04102 -30.8604 -18.2754 -42.1289l-44.4326 -44.5723
c-9.02734 -9.05371 -21.0293 -14.041 -33.7979 -14.041c-12.7695 0 -24.7715 4.98633 -33.7988 14.041l-44.4326 44.5723c-11.2344 11.2676 -17.7246 26.2305 -18.2803 42.1289c-0.558594 16.1318 5.08105 31.4219 15.8809 43.0547
c11.333 12.2051 26.7139 19.0908 43.3086 19.3848c13.6318 0.28125 26.6172 -3.98438 37.3193 -12.0352c10.7041 8.05078 23.6934 12.3135 37.3203 12.0352c16.5967 -0.294922 31.9756 -7.17969 43.3086 -19.3848zM321.003 356.61
c16.2646 16.3174 17.1348 42.9082 1.93359 59.2764c-7.84277 8.44922 -18.4775 13.2129 -29.9463 13.417c-11.4678 0.155273 -22.2578 -4.16699 -30.3711 -12.3047c-1.75391 -1.75879 -4.13281 -2.74707 -6.61621 -2.74707c-2.48438 0 -4.86426 0.988281 -6.61719 2.74707
c-7.93262 7.95703 -18.4199 12.3115 -29.6045 12.3115c-0.254883 0 -0.509766 -0.00195312 -0.766602 -0.00585938c-11.4678 -0.206055 -22.1035 -4.96973 -29.9463 -13.417c-15.2002 -16.3691 -14.3301 -42.96 1.93848 -59.2773l44.4326 -44.5713
c5.49512 -5.51172 12.7969 -8.54688 20.5654 -8.54688c7.76758 0 15.0693 3.03418 20.5645 8.54688zM212.4 370.764c0 5.16016 4.18262 9.34277 9.34277 9.34277s9.34375 -4.18262 9.34375 -9.34277s-4.18359 -9.34277 -9.34375 -9.34277s-9.34277 4.18262 -9.34277 9.34277
zM280.916 370.764c0 5.16016 4.18262 9.34277 9.34277 9.34277s9.34277 -4.18262 9.34277 -9.34277s-4.18262 -9.34277 -9.34277 -9.34277s-9.34277 4.18262 -9.34277 9.34277z" />
    <glyph glyph-name="uniF115" unicode="&#xf115;" 
d="M389.257 109.302c20.3496 -20.2432 40.6992 -40.4863 60.9424 -60.8359c16.9404 -17.0469 16.834 -37.9287 -0.212891 -55.1885c-11.5068 -11.6133 -23.7598 -22.6934 -34.627 -34.8398c-15.874 -17.792 -35.6914 -23.5459 -58.4912 -22.2666
c-33.1348 1.81055 -63.6064 12.7842 -93.0117 27.0615c-65.3105 31.749 -121.139 75.751 -167.911 131.366c-34.626 41.126 -63.1797 85.9805 -81.9307 136.481c-9.16309 24.3975 -15.6621 49.4355 -13.6377 75.9648c1.27832 16.3008 7.35156 30.2578 19.3906 41.6572
c12.998 12.3594 25.251 25.251 38.0361 37.8232c16.6201 16.4072 37.5029 16.4072 54.2295 0.106445c10.335 -10.1221 20.4561 -20.4561 30.6846 -30.6846c9.9082 -10.0146 19.8164 -19.8164 29.7256 -29.832c17.4727 -17.5791 17.4727 -38.0352 0.106445 -55.5078
c-12.4658 -12.5723 -24.8242 -25.1445 -37.5029 -37.3965c-3.30273 -3.30273 -3.62305 -5.9668 -1.91797 -10.0156c8.41699 -20.0293 20.4561 -37.8223 33.9873 -54.4424c27.2744 -33.4551 58.0654 -63.1797 94.8223 -86.2998
c7.88477 -4.90137 16.6211 -8.52344 24.8242 -12.998c4.15527 -2.34375 7.03223 -1.59863 10.4414 1.91797c12.4658 12.7852 25.1445 25.3564 37.8223 37.9287c16.6211 16.5137 37.5029 16.5137 54.2305 0zM368.907 194.216
c-4.79395 27.9141 -17.8994 53.2715 -37.9287 73.3018c-21.2021 21.2012 -48.0508 34.5195 -77.5635 38.6748l5.54004 39.5273c38.1426 -5.32715 72.7686 -22.5869 100.15 -49.9688c25.8896 -25.9961 42.9365 -58.7051 49.1162 -94.8223zM430.382 365.11
c43.043 -43.1504 71.2773 -97.4863 81.6113 -157.363l-39.3135 -6.71191c-8.84277 51.6729 -33.2412 98.6582 -70.4248 135.841c-39.207 39.1016 -88.8564 63.9258 -143.619 71.5967l5.54004 39.5273c63.3926 -8.84277 120.819 -37.5029 166.206 -82.8896z" />
    <glyph glyph-name="uniF106" unicode="&#xf106;" 
d="M227.93 316.288c-3.59277 -6.44629 -10.0713 -9.88281 -19.4756 -10.3076v43.4023c6.87012 -1.87012 11.7637 -3.84766 14.6777 -5.93848c5.06641 -3.57715 7.60059 -8.80273 7.60059 -15.6924c0 -4.33887 -0.93457 -8.1709 -2.80273 -11.4639zM200.602 405.168v-38.7793
c-6.14355 1.20508 -11.0537 3.35645 -14.6943 6.42969c-3.62793 3.08691 -5.44824 7.3457 -5.44824 12.7939c0 4.51465 1.53418 8.82129 4.62305 12.9531c3.07324 4.13184 8.25098 6.31836 15.5195 6.60254zM204.449 258.269c-52.3984 0 -94.8672 42.4688 -94.8672 94.8643
c0 52.3984 42.4707 94.8672 94.8672 94.8672s94.8506 -42.4658 94.8506 -94.8643s-42.4541 -94.8672 -94.8506 -94.8672zM174.156 362.668c5.68457 -5.28906 14.5059 -9.04395 26.4639 -11.3398v-44.9707c-9.3125 0.775391 -15.6924 4.25977 -19.1289 10.4824
c-1.93164 3.46582 -3.12109 8.96191 -3.56348 16.499h-14.5986c0 -9.45312 1.56836 -16.9609 4.70215 -22.5176c5.73242 -10.291 16.5947 -15.96 32.6045 -17.0059v-16.0098h7.83887v16.0098c9.95996 1.12598 17.5762 3.37305 22.8496 6.77832
c9.5 6.15918 14.2666 16.5488 14.2666 31.1953c0 10.1182 -3.70801 17.7666 -11.1328 22.9443c-4.57812 3.12109 -13.2393 6.47461 -26.002 10.0547v40.2051c7.58496 -0.287109 13.1104 -3.2002 16.5781 -8.75781c1.86816 -3.02246 3.00977 -6.63379 3.37305 -10.8135
h14.458c-0.302734 9.32715 -3.35742 16.832 -9.2168 22.5166c-5.85645 5.68457 -14.2666 8.90137 -25.208 9.67578v10.8145h-7.83887v-10.9707c-11.0693 -0.111328 -19.6514 -3.53223 -25.7949 -10.2305c-6.14355 -6.71387 -9.20117 -14.251 -9.20117 -22.6133
c0 -9.34082 2.85059 -16.6729 8.55078 -21.9463zM483.645 61.4434c-51.2871 -53.4414 -127.246 -72.7129 -141.895 -75.5469c-4.41895 -16.6611 -1.97949 -33.6816 0.251953 -49.8965h-61.3125c-8.23242 10.1484 -14.9463 21.8037 -21.8516 33.3154
c-44.8594 -3.65723 -89.5303 -1.1543 -127.152 7.36426c-1.40918 -14.6465 0.219727 -28.0898 1.85254 -40.6641h-61.9443c-18.877 24.418 -25.7314 60.8379 -30.2139 99.6494c-30.6533 25.8262 -28.4854 96.2285 -5.52441 128.989
c-27.5547 6.79395 -11.876 59.917 16.5781 40.5361c-17.4492 4.38672 -18.9854 -22.9443 -5.52539 -23.958c78.0654 81.5479 240.275 71.4609 294.857 14.7412c14.583 16.7539 37.4502 35.0273 64.4785 33.1748c-11.1162 -9.15234 -13.7119 -26.8555 -14.7412 -46.0635
c30.29 -13.9355 51.541 -36.9277 66.3467 -66.3477c6.08301 -1.15625 23.3086 0.775391 35.0117 0c1.62891 -25.6982 0.710938 -44.9385 -9.2168 -55.2939zM399.04 143.705c-8.40723 0 -15.249 -6.8252 -15.249 -15.2324s6.8418 -15.248 15.249 -15.248
c8.39062 0 15.2324 6.84082 15.2324 15.248s-6.8418 15.2324 -15.2324 15.2324zM272.285 202.783l4.68652 9.89648c-45.2393 15.6123 -94.9287 15.4395 -139.931 -0.475586l4.78223 -9.86328c41.9609 14.8369 88.293 14.9805 130.462 0.442383z" />
    <glyph glyph-name="uniF11D" unicode="&#xf11d;" 
d="M256 448c141.163 0 256 -114.843 256 -256s-114.837 -256 -256 -256s-256 114.843 -256 256s114.837 256 256 256zM381.804 166.364c15.7725 15.7607 24.4551 36.7275 24.4551 59.0264c0 22.2998 -8.68457 43.2666 -24.4453 59.0166
c-15.7607 15.7705 -36.7178 24.4619 -59.0322 24.4619c-22.3154 0 -43.2715 -8.69043 -59.0215 -24.4512l-7.76074 -7.75586l-7.75 7.74512c-15.7598 15.7705 -36.7168 24.4619 -59.0322 24.4619c-22.3145 0 -43.2705 -8.69043 -59.0205 -24.4512
c-15.7725 -15.7607 -24.457 -36.7285 -24.457 -59.0273c0 -22.2979 8.68457 -43.2656 24.457 -59.0205l114 -114.018c3.12988 -3.13086 7.38086 -4.8916 11.8037 -4.8916s8.67285 1.76074 11.8037 4.8916z" />
    <glyph glyph-name="uniF10C" unicode="&#xf10c;" 
d="M490.668 448h21.3311v-512h-21.3311v23.1777h-48.5146v-23.1777h-372.308v23.1777h-48.5146v-23.1777h-21.3311v512h21.3311v-21.7061h48.5146v21.7061h372.308v-21.7061h48.5146v21.7061zM69.8457 15.583v46.2725h-48.5146v-46.2725h48.5146zM69.8457 118.261v46.2715
h-48.5146v-46.2715h48.5146zM69.8457 220.938v46.2715h-48.5146v-46.2715h48.5146zM69.8457 323.616v46.2725h-48.5146v-46.2725h48.5146zM398.547 389.06h-285.096v-163.334h285.096v163.334zM113.451 -5.05762h285.096v163.334h-285.096v-163.334zM490.668 15.583v46.2725
h-48.5146v-46.2725h48.5146zM490.668 118.261v46.2715h-48.5146v-46.2715h48.5146zM490.668 220.938v46.2715h-48.5146v-46.2715h48.5146zM490.668 323.616v46.2725h-48.5146v-46.2725h48.5146z" />
    <glyph glyph-name="uniF120" unicode="&#xf120;" 
d="M509.646 179.194c3.55957 -4.22363 3.02051 -10.5312 -1.20312 -14.0908c-1.87598 -1.58105 -4.16406 -2.35352 -6.43945 -2.35352c-2.8457 0 -5.67285 1.20898 -7.65137 3.55566l-12.1865 14.46c-2.58887 -60.5088 -27.3496 -116.979 -70.4072 -160.038
c-45.5576 -45.5576 -106.129 -70.6465 -170.557 -70.6465c-8.75879 0 -17.5898 0.474609 -26.2471 1.41309c-5.49121 0.594727 -9.45996 5.52832 -8.86621 11.0186c0.595703 5.49023 5.54883 9.45312 11.0195 8.86523c7.94531 -0.860352 16.0518 -1.2959 24.0947 -1.2959
c118.533 0 215.579 93.7178 220.957 210.946l-12.9033 -10.874c-4.22266 -3.55859 -10.5322 -3.02148 -14.0908 1.20312c-3.55957 4.22266 -3.02148 10.5312 1.20215 14.0908l32.1191 27.0674c4.22363 3.55762 10.5322 3.02148 14.0908 -1.20215zM461.886 288.781
c2.23535 -5.05078 -0.0478516 -10.957 -5.09863 -13.1914c-1.31543 -0.582031 -2.68945 -0.856445 -4.04004 -0.856445c-3.83691 0 -7.49805 2.22168 -9.15039 5.95703c-35.4229 80.0635 -114.868 131.798 -202.395 131.798c-36.1621 0 -71.752 -8.85059 -103.47 -25.6504
l20.1904 -7.2998c5.19336 -1.87793 7.88184 -7.61133 6.00391 -12.8037c-1.4707 -4.07129 -5.31152 -6.60352 -9.4043 -6.60352c-1.12891 0 -2.27637 0.193359 -3.39941 0.599609l-39.501 14.2812c-5.19336 1.87793 -7.88184 7.61035 -6.00391 12.8047l14.2812 39.501
c1.87793 5.19336 7.60938 7.88086 12.8047 6.00391c5.19336 -1.87793 7.88184 -7.61035 6.00391 -12.8047l-4.74902 -13.1338c33.1631 16.4619 69.9277 25.1055 107.244 25.1055c95.4375 0 182.062 -56.4072 220.683 -143.707zM138.576 -11.3535
c0.970703 -5.4375 -2.65039 -10.6318 -8.08691 -11.6025l-41.3506 -7.38184c-0.594727 -0.106445 -1.18652 -0.157227 -1.76953 -0.157227c-4.75293 -0.000976562 -8.96777 3.40137 -9.83301 8.24414c-0.970703 5.43652 2.64941 10.6309 8.08691 11.6016l18.709 3.34082
c-28.8262 19.9092 -53.166 45.9443 -71.0205 76.209c-21.792 36.9424 -33.3115 79.2627 -33.3115 122.385c0 51.6777 16.1064 100.955 46.5781 142.504c3.26562 4.45312 9.52539 5.41602 13.9775 2.15039c4.45312 -3.2666 5.41602 -9.52441 2.14941 -13.9785
c-27.9375 -38.0938 -42.7051 -83.2822 -42.7051 -130.676c0 -72.3193 35.7539 -140.137 94.4473 -181.297l-2.94531 16.4932c-0.970703 5.43652 2.65039 10.6309 8.08691 11.6016c5.44434 0.966797 10.6318 -2.65039 11.6035 -8.08691zM242.816 342
c82.71 0 150 -67.29 150 -150s-67.29 -150 -150 -150s-150 67.29 -150 150s67.29 150 150 150zM242.816 62c71.6826 0 130 58.3184 130 130s-58.3174 130 -130 130c-71.6836 0 -130 -58.3184 -130 -130s58.3164 -130 130 -130zM242.816 202c27.5693 0 50 -22.4297 50 -50
c0 -24.1475 -17.2051 -44.3477 -40 -48.9941v-11.0059c0 -5.52344 -4.47852 -10 -10 -10c-5.52246 0 -10 4.47656 -10 10v11.0059c-22.7949 4.64648 -40 24.8477 -40 48.9941c0 5.52344 4.47754 10 10 10c5.52148 0 10 -4.47656 10 -10
c0 -13.0371 8.36035 -24.1523 20 -28.2803v28.2803c0 5.52344 4.47754 10 10 10c5.52148 0 10 -4.47656 10 -10v-28.2803c11.6387 4.12793 20 15.2441 20 28.2803c0 16.542 -13.458 30 -30 30c-27.5703 0 -50 22.4297 -50 50c0 24.1475 17.2051 44.3477 40 48.9941v11.0059
c0 5.52344 4.47754 10 10 10c5.52148 0 10 -4.47656 10 -10v-11.0059c22.7949 -4.64648 40 -24.8477 40 -48.9941c0 -5.52344 -4.47852 -10 -10 -10c-5.52246 0 -10 4.47656 -10 10c0 13.0371 -8.36133 24.1523 -20 28.2803v-28.2803c0 -5.52344 -4.47852 -10 -10 -10
c-5.52246 0 -10 4.47656 -10 10v28.2803c-11.6396 -4.12793 -20 -15.2441 -20 -28.2803c0 -16.542 13.458 -30 30 -30zM325.31 264.75c17.75 -20.0898 27.5107 -45.9199 27.5107 -72.75c0 -11.7305 -1.83984 -23.2695 -5.4707 -34.3096
c-1.34961 -4.12012 -5.16992 -6.89062 -9.5 -6.89062c-1.0498 0 -2.09863 0.169922 -3.11914 0.509766c-2.54004 0.830078 -4.60059 2.60059 -5.80078 4.98047c-1.20996 2.38965 -1.41016 5.09961 -0.580078 7.63965c2.95996 9.02051 4.4707 18.4707 4.4707 28.0703
c-0.0107422 21.9297 -8 43.0703 -22.5 59.5195c-1.76953 2 -2.64941 4.57031 -2.47949 7.24023c0.160156 2.66016 1.36035 5.10059 3.36035 6.87012c1.83008 1.62012 4.17871 2.50977 6.6084 2.50977c2.87012 0 5.61035 -1.23926 7.5 -3.38965zM324.76 133.82
c4.15039 -3.62988 4.58008 -9.95996 0.959961 -14.1104c-1.89941 -2.17969 -4.64941 -3.41992 -7.54004 -3.41992c-2.41992 0 -4.75 0.870117 -6.56934 2.45996c-4.15918 3.62988 -4.59082 9.95996 -0.959961 14.1104c0 0 0 0.00976562 0.0107422 0.00976562
c1.89844 2.16992 4.63867 3.41992 7.5293 3.41992c2.40918 0 4.75 -0.879883 6.56934 -2.46973zM174.019 265.25c4.16016 -3.62988 4.59082 -9.95996 0.959961 -14.1104c-1.89844 -2.17969 -4.63867 -3.41992 -7.52832 -3.41992h-0.0107422
c-2.40918 0 -4.75 0.870117 -6.56934 2.45996c-2.01074 1.76074 -3.2207 4.19043 -3.40039 6.86035c-0.179688 2.66016 0.679688 5.22949 2.44043 7.24023v0.00976562c1.89844 2.17969 4.64844 3.42969 7.54004 3.42969c2.41992 0 4.75 -0.879883 6.56836 -2.46973z
M175.31 132.48c3.65039 -4.13086 3.26074 -10.4609 -0.879883 -14.1104c-1.83008 -1.62012 -4.16992 -2.50977 -6.60938 -2.50977c-2.86914 0 -5.60938 1.23926 -7.5 3.38965c-17.7393 20.0801 -27.5107 45.9199 -27.5 72.75
c-0.0107422 11.7197 1.83008 23.2695 5.46094 34.3096c1.34961 4.12012 5.16992 6.89062 9.5 6.89062c1.05859 0 2.09863 -0.169922 3.11914 -0.5c5.23926 -1.71973 8.10059 -7.39062 6.38086 -12.6201c-2.96094 -9.03027 -4.46094 -18.4805 -4.47168 -28.0801
c0.00976562 -21.9297 8 -43.0703 22.5 -59.5195z" />
    <glyph glyph-name="uniF123" unicode="&#xf123;" 
d="M122.349 264.49c0 93.2158 58.5146 168.782 130.696 168.782s130.695 -75.5664 130.695 -168.782s-58.5137 -168.782 -130.695 -168.782s-130.696 75.5664 -130.696 168.782zM256.006 57.3896c141.38 0 255.994 -52.292 255.994 -106.662h-512
c0 54.3701 114.614 106.662 256.006 106.662z" />
    <glyph glyph-name="uniF119" unicode="&#xf119;" 
d="M360.772 427.195c84.8018 0 151.228 -66.4287 151.229 -151.231c0 -46.8721 -19.0527 -91.8965 -59.96 -141.692c-35.0254 -42.6357 -83.4355 -86.3496 -148.002 -143.452c-0.0664062 -0.0585938 -0.133789 -0.118164 -0.202148 -0.176758l-32.6104 -28.1758
c-4.37012 -3.77539 -9.79492 -5.66406 -15.2188 -5.66406s-10.8477 1.88672 -15.2178 5.66309l-32.6172 28.1748c-0.0683594 0.0595703 -0.134766 0.118164 -0.203125 0.178711c-9.80469 8.66992 -19.3311 17.0352 -28.5654 25.1406
c-108.034 94.8418 -179.405 157.498 -179.405 260.006c0 84.8008 66.4287 151.229 151.23 151.229c38.1152 0 75.7734 -14.3496 104.775 -39.2285c28.9941 24.877 66.6523 39.2285 104.767 39.2285zM273.295 25.7793c122.726 108.54 192.149 173.682 192.15 250.187
c0 59.6748 -44.999 104.674 -104.671 104.674c-32.4727 0 -65.8066 -15.5635 -86.9912 -40.6182c-4.42285 -5.23145 -10.9229 -8.24805 -17.7734 -8.24805c-6.84961 0 -13.3516 3.01562 -17.7744 8.24512c-21.1943 25.0566 -54.5322 40.6211 -87.0049 40.6211
c-59.6738 0 -104.675 -44.999 -104.675 -104.674c0 -81.4277 61.5654 -135.478 163.564 -225.02c9.24121 -8.11328 18.7773 -16.4854 28.5898 -25.1621l17.2959 -14.9414z" />
    <glyph glyph-name="uniF121" unicode="&#xf121;" 
d="M98.2432 384.708c3.7793 1.88965 5.66797 3.7793 11.3359 3.7793v-30.2285c-3.77832 1.88867 -7.55664 3.77832 -9.44629 3.77832c-8.00977 8.00879 -6.53418 13.3809 -1.88965 22.6709zM126.583 328.029c7.88281 -3.94141 6.84082 -17.7207 1.88965 -22.6709
c-3.7793 -1.88965 -7.55762 -1.88965 -11.3359 -3.7793v32.1182c5.66797 -1.88867 9.44629 -3.77832 9.44629 -5.66797zM113.358 437.608c65.5312 0 105.883 -62.0137 92.5752 -115.247c-18.8926 -1.88867 -34.0078 -5.66797 -51.0107 -9.44629
c0 28.1191 -9.27539 31.2354 -37.7861 43.4541v32.1182c5.66797 0 9.44629 -3.7793 13.2246 -7.55762c0 -1.88867 1.88965 -5.66797 1.88965 -11.3359h20.7822c0 22.7061 -19.6699 35.8975 -35.8965 35.8975v11.335h-7.55762v-11.335
c-38.5029 0 -43.252 -39.8779 -28.3389 -54.79c5.76562 -8.65039 20.0215 -13.0732 30.2285 -15.1143v-34.0078c-7.55762 1.88965 -11.3359 3.7793 -13.2256 7.55762c-1.88867 1.88867 -3.77832 5.66797 -3.77832 13.2246h-22.6719
c0 -17.0029 3.7793 -26.4502 15.1152 -34.0068c0 -1.88965 1.88867 -1.88965 1.88867 -1.88965c-11.3359 -5.66797 -22.6719 -11.3359 -32.1182 -18.8926c-70.8447 53.1338 -36.3496 170.036 56.6797 170.036zM494.996 192c7.55762 0 15.1143 -7.55762 17.0039 -15.1143
v-39.6758c0 -5.66797 -1.88965 -11.335 -5.66797 -17.0029c-13.2246 -24.5615 -41.5645 -60.458 -107.69 -98.2441v-56.6787c0 -11.3359 -7.55664 -18.8926 -18.8926 -18.8926h-37.7861c-11.3359 0 -18.8926 7.55664 -18.8926 18.8926v28.3398
c-24.5615 -5.66797 -49.1221 -9.44727 -75.5723 -9.44727s-51.0107 3.7793 -75.5723 9.44727v-28.3398c0 -11.3359 -7.55664 -18.8926 -18.8926 -18.8926h-37.7861c-11.3359 0 -18.8926 7.55664 -18.8926 18.8926v56.6787
c-45.3438 28.3398 -75.5723 68.0146 -75.5723 113.358c0 7.55664 0 15.1143 1.88965 22.6709l-11.3359 11.3359c-15.1143 15.1143 -15.1143 37.7861 0 52.9004l7.55664 7.55762c0 -16.5547 -2.16504 -28.0635 13.2256 -43.4541
c30.2285 58.5684 115.247 100.133 213.49 100.133c37.7861 0 71.7939 -7.55664 102.022 -17.0039c-5.66797 -5.66797 -7.55664 -13.2246 -7.55664 -20.7822c0 -5.66797 1.88867 -11.3359 3.77832 -15.1143c9.44629 30.2285 37.7861 52.9004 71.793 52.9004h56.6797
l-54.79 -54.79c17.0039 -11.335 28.3398 -24.5605 37.7861 -39.6748h39.6748zM396.753 154.214c11.3359 0 18.8926 9.44629 18.8926 18.8936c0 9.44629 -7.55664 18.8926 -18.8926 18.8926s-18.8936 -9.44629 -18.8936 -18.8926
c0 -9.44727 7.55762 -18.8936 18.8936 -18.8936z" />
    <glyph glyph-name="uniF10B" unicode="&#xf10b;" 
d="M470.745 43.7715l-1.72559 -2.07031c-56.8066 -68.1592 -132.474 -105.713 -213.02 -105.713c-80.5576 0 -156.213 37.542 -213.032 105.713l-1.71289 2.07031l0.404297 2.65332c10.9707 71.5615 48.3584 129.047 105.272 161.901l4.0459 2.33203l3.22461 -3.37988
c26.8799 -28.2012 63.0303 -43.7178 101.786 -43.7178s74.9053 15.5283 101.786 43.7178l3.22461 3.37988l4.0459 -2.33203c56.9141 -32.8545 94.3008 -90.3398 105.284 -161.901zM256 192.298c-70.4912 0 -127.846 57.3779 -127.846 127.856
c0 70.4795 57.3545 127.846 127.846 127.846s127.846 -57.3662 127.846 -127.857s-57.3545 -127.845 -127.846 -127.845z" />
    <glyph glyph-name="uniF10E" unicode="&#xf10e;" 
d="M383.055 290.571c20.1094 -7.94434 28.6934 -17.9316 28.6973 -33.3887c0 -15.0488 -10.0898 -27.0332 -26.4707 -30.7129c-0.161133 -0.0390625 -0.945312 -0.132812 -0.945312 -1.19531v-11.3594c0 -3.10742 -2.59277 -5.63379 -5.7793 -5.63379h-5.1543
c-3.18555 0 -5.77832 2.52832 -5.77832 5.63379v10.7939c0 0.799805 -0.875 1.10645 -1.0459 1.13086c-0.639648 0.0996094 -15.0039 2.36523 -22.4277 6.23145c-1.85938 0.969727 -3.31348 3.14941 -2.36914 5.83301l2.65527 7.18945
c0.800781 2.1543 2.80371 3.5459 5.10449 3.5459c0.842773 0 1.66211 -0.18457 2.43555 -0.551758c0.120117 -0.0576172 12.207 -5.71875 21.1387 -5.71875c10.459 0 17.7598 5.6084 17.7598 13.6377c0 7.37793 -5.15527 12.4092 -17.792 17.3701
c-15.8076 6.00781 -30.4473 14.0107 -30.4473 31.7217c0 14.207 9.60938 25.4707 24.9854 29.1328c0.329102 0.0771484 1.22949 0.4375 1.22949 1.26855l-0.0126953 10.8418c0 3.1084 2.5918 5.63574 5.77148 5.63574h4.98926c3.18359 0 5.77637 -2.52832 5.77637 -5.63379
l0.0390625 -10.3125c0 -0.797852 0.682617 -0.943359 0.878906 -0.978516c0.124023 -0.0214844 12.3057 -2.12109 18.5381 -4.83398c1.87305 -0.80957 3.3418 -3.06641 2.37402 -5.65723l-2.78125 -7.1084c-0.8125 -2.0752 -2.77246 -3.41602 -4.9873 -3.41602
c-0.907227 0 -1.82422 0.232422 -2.64062 0.667969c-0.0693359 0.0351562 -7.83301 4.02637 -17.9561 4.02637c-11.4453 0 -15.5049 -6.26172 -15.5049 -11.6211c0 -6.69727 4.41992 -10.4062 19.7197 -16.5391zM376.614 415.518
c74.7715 0 135.386 -60.6162 135.386 -135.387c0 -74.7725 -60.6143 -135.391 -135.386 -135.391c-74.7744 0 -135.387 60.6182 -135.387 135.391c0 74.7705 60.6123 135.387 135.387 135.387zM376.614 176.117c57.4434 0 104.008 46.5703 104.008 104.012
c0 57.4424 -46.5645 104.011 -104.008 104.011c-57.4463 0 -104.012 -46.5684 -104.012 -104.011c0 -57.4414 46.5654 -104.012 104.012 -104.012zM484.49 79.1338c20.9404 11.5576 40.375 -13.8047 15.375 -37.8281c-16.1299 -15.4951 -100.254 -65.3496 -129.972 -72.2578
c-20.7725 -4.82812 -171.374 22.7617 -188.782 26.7119c-11.0957 2.5166 -23.0928 -5.56738 -31.6455 -12.8613c-7.81445 -6.66406 -8.79297 2.80566 -8.74609 3.50977c2.18848 33.3271 6.20508 97.1279 8.24219 128.328c0.439453 6.71289 4.83789 6.58691 11.8525 7.72852
c20.4775 3.33496 62.7959 9.80273 79.9365 9.29688c36.3877 -1.07715 121.575 -32.2852 136.116 -35.585c14.625 -3.31836 18.4424 -28.4707 -8.44629 -35.6445c-35.0654 -9.35547 -93.0342 11.2441 -93.0342 5.29785c0 -15.6934 66.0957 -28.9814 101.229 -23.4717
c39.4883 6.19336 79.085 20.8857 107.874 36.7754zM107.403 123.682c6.09082 -0.299805 10.6943 -5.52148 10.2295 -11.6006l-9.60254 -125.488c-0.466797 -6.08105 -5.83301 -10.8633 -11.9277 -10.6279l-87.4365 -0.00878906
c-6.09473 0.235352 -9.84375 5.2627 -8.33105 11.1709l14.3457 130.245c1.51367 5.90723 7.73438 10.4971 13.8262 10.1973zM60.9561 -6.78027c12.0479 0 21.8135 9.76562 21.8135 21.8135c0 12.0469 -9.7666 21.8135 -21.8135 21.8135s-21.8135 -9.76465 -21.8135 -21.8135
c0 -12.0469 9.76465 -21.8135 21.8135 -21.8135z" />
    <glyph glyph-name="uniF111" unicode="&#xf111;" 
d="M256 448c141.383 0 256 -114.615 256 -256s-114.617 -256 -256 -256s-256 114.615 -256 256s114.617 256 256 256zM344.48 178.43c4.67578 2.92969 7.51953 8.05566 7.51953 13.5703s-2.84375 10.6396 -7.51953 13.5703l-128 80
c-4.93359 3.08594 -11.1523 3.25781 -16.2383 0.421875c-5.08594 -2.82031 -8.24219 -8.17188 -8.24219 -13.9922v-160c0 -5.82031 3.15625 -11.1719 8.24219 -13.9922c2.41797 -1.34375 5.08984 -2.00781 7.75781 -2.00781c2.94531 0 5.88965 0.813477 8.48047 2.42969z
" />
    <glyph glyph-name="uniF10F" unicode="&#xf10f;" 
d="M498.526 414.37c7.41016 0 13.4736 -6.06348 13.4736 -13.4736v-323.369c0 -7.41016 -6.06348 -13.4736 -13.4736 -13.4736h-262.737l-91.6211 -90.2734c-8.75781 -8.75781 -22.9053 -2.69434 -22.9053 9.43164v80.8418h-107.789
c-7.41016 0 -13.4736 6.06348 -13.4736 13.4736v323.369c0 7.41016 6.06348 13.4736 13.4736 13.4736h485.053zM485.053 91.001v296.421h-458.105v-296.421h107.79c7.41016 0 13.4736 -6.0625 13.4736 -13.4736v-61.9785l72.7578 71.4102
c2.69434 2.69531 6.0625 4.04199 9.43164 4.04199h254.652z" />
    <glyph glyph-name="uniF11F" unicode="&#xf11f;" 
d="M10.6885 352.844c-4.375 3.69824 -5.04199 10.1982 -1.5 14.7178c8.18652 10.4482 20.3955 16.4385 33.4785 16.4385h426.666c13.084 0 25.292 -5.99023 33.4805 -16.4365c3.54199 -4.52148 2.875 -11.0215 -1.5 -14.7197
c-70.2715 -59.5107 -193.573 -164.219 -229.845 -196.896c-4.85352 -4.38477 -10.0625 -6.60449 -15.4688 -6.60449c-5.41699 0 -10.6348 2.24023 -15.5 6.64648c-36.2402 32.6445 -159.542 137.343 -229.812 196.854zM505.813 320.594
c3.76953 -1.74023 6.18652 -5.52051 6.18652 -9.67676v-268.25c0 -23.5322 -19.1348 -42.667 -42.666 -42.667h-426.667c-23.5322 0 -42.667 19.1348 -42.667 42.667v268.25c0 4.15625 2.41699 7.92676 6.18652 9.67773c3.75 1.73926 8.20801 1.14648 11.375 -1.54199
c63.6143 -53.917 175.303 -148.864 208.656 -178.917c17.6045 -15.875 41.9795 -15.875 59.542 -0.0205078c31.292 28.1963 130.75 112.875 208.679 178.937c3.14551 2.68848 7.59375 3.30176 11.375 1.54199z" />
    <glyph glyph-name="uniF11A" unicode="&#xf11a;" 
d="M108.927 -33.832v-0.000976562h0.0166016v132.111s68.0957 20.6396 163.406 0c95.3105 -20.6562 113.471 -38.5439 108.927 -49.5518c-4.54492 -11.0078 -127.087 0 -127.087 0c52.958 -53.6797 164.91 -17.8877 199.709 0
c34.7988 17.8887 69.5986 15.1367 54.4629 -6.87988c-15.1348 -22.0156 -95.3096 -88.0781 -145.246 -92.207c-49.9355 -4.12695 -133.134 17.8877 -163.406 33.04c-30.2715 15.1523 -90.7822 -16.5117 -90.7822 -16.5117zM0 -43.4961v141.791h72.624v-141.791h-72.624z
M231.517 242.197c4.27344 -5.80859 9.02441 -10.0166 14.2715 -12.626v62.9268c-19.04 5.59961 -32.9912 14.0801 -41.8877 25.4561c-8.89551 11.3604 -13.3281 25.1514 -13.3281 41.376c0 16.3994 5.00781 30.208 15.0723 41.376
c10.0479 11.1523 23.4404 17.5996 40.1436 19.2959v14.8633h21.1191v-14.8477c15.457 -1.91895 27.7441 -7.34375 36.8643 -16.3037c9.15137 -8.95996 14.9756 -20.959 17.4873 -35.9668l-36.8633 -4.96094c-2.23926 11.8086 -8.06348 19.8086 -17.4883 24.0166v-58.7041
c23.3125 -6.51172 39.2002 -14.959 47.6475 -25.3115c8.44824 -10.3516 12.6885 -23.6465 12.6885 -39.8711c0 -18.1279 -5.32812 -33.3916 -15.9512 -45.791c-10.6406 -12.4326 -25.4238 -20.0322 -44.3672 -22.832v-28.0801h-21.1201v27.3281
c-16.8154 2.09668 -30.4629 8.55957 -40.9434 19.376c-10.4961 10.7998 -17.2002 26.0791 -20.1123 45.791l38.0312 4.20801c1.55273 -8 4.44824 -14.9277 8.73633 -20.7188zM266.925 286.035h-0.000976562v-58.5596c7.2793 1.4082 13.2002 4.86328 17.7754 10.4316
c4.55957 5.56836 6.84863 12.0957 6.84863 19.6006c0 6.7041 -1.91992 12.4961 -5.74414 17.3438c-3.85547 4.84766 -10.127 8.5918 -18.8789 11.1836zM231.661 346.34c3.10449 -4.54395 7.82422 -8.24023 14.127 -11.0234v51.9512
c-5.72656 -2 -10.2871 -5.40723 -13.6953 -10.208c-3.3916 -4.81543 -5.08789 -10.1123 -5.08789 -15.9199c0 -5.3125 1.55176 -10.2402 4.65625 -14.7998z" />
    <glyph glyph-name="uniF10A" unicode="&#xf10a;" 
d="M188.017 47.1709c-56.166 26.248 -92.3789 82.4805 -92.7354 144.717c0.34375 62.4082 36.5557 118.653 92.709 144.876c1.29297 1.50391 2.92969 2.73145 4.83008 3.5498c40.4873 17.3936 84.8027 17.5381 125.37 0.435547
c1.88672 -0.791992 3.53711 -2.00586 4.84277 -3.49707c56.7207 -26.0381 93.3027 -82.4541 93.6592 -145.206c-0.370117 -62.8564 -36.9385 -119.3 -93.6592 -145.337c-1.29297 -1.50488 -2.94238 -2.67871 -4.84277 -3.49707
c-20.125 -8.47266 -41.042 -12.7754 -62.1973 -12.7754c-21.5371 0 -42.7969 4.43457 -63.1729 13.1973c-1.8877 0.818359 -3.52441 2.0459 -4.80371 3.53711zM325.989 299.72l-0.527344 -1.86035c-1.31934 -4.76465 -5.17285 -8.40723 -10.0166 -9.43652l-32.3057 -6.83594
c5.96484 -39.0098 -4.96191 -43.8535 -9.91113 -46.0439c-3.74805 -1.64941 -16.127 -11.376 -26.0244 -19.9268l-6.00488 -9.62109c23.0684 -15.4268 23.0684 -22.0254 23.0684 -26.5918c0 -3.58887 0.858398 -15.876 1.92676 -27.0664
c2.63965 3.1543 4.87012 6.03125 5.82031 7.45605c0.818359 1.59668 10.9795 16.5752 29.8516 43.9453c1.96582 2.82422 4.92188 4.77734 8.30078 5.4502l24.1768 4.81738c1.2666 1.2666 2.44141 2.52051 3.29883 3.49707c1.91309 7.39062 9.66016 15.7305 20.0723 26.9482
c1.58398 1.67578 3.53711 2.91602 5.72754 3.60254l5.70117 1.79492c-9.64648 20.0723 -24.6777 37.4268 -43.1543 49.8711zM134.965 169.202l1.72852 1.62305c2.32227 11.6133 4.51367 24.4941 4.67188 28.624c-1.97949 8.93457 4.18359 16.8926 21.6562 27.8721
c5.63477 16.6016 9.62012 26.5 12.5498 32.5566c-2.2041 1.92676 -5.04102 4.1709 -7.8125 6.20312c-0.461914 0.330078 -0.910156 0.711914 -1.37207 1.0293c-0.581055 0.421875 -1.14844 0.883789 -1.66309 1.39844l-5.4375 5.38477
c-17.6836 -22.0918 -27.3174 -49.3301 -27.3174 -77.6904c0 -9.10547 1.00293 -18.1328 2.99609 -27.001zM47.6016 246.008c3.78711 14.6885 9.2373 29.1924 16.2578 43.2734c2.19141 4.36816 4.36816 8.41895 6.55957 12.2334l-8.26172 8.26074
c-6.84863 6.82324 -10.4648 16.3906 -9.89746 26.2227c-0.237305 8.39355 3.28613 17.2617 9.89746 23.8867l26.7637 26.7627c12.9062 12.9336 35.499 12.9463 48.459 0l8.80176 -8.80176c17.6182 10.4648 36.582 18.3037 56.6016 23.3848v12.4971
c0 18.8984 15.375 34.2725 34.2725 34.2725h37.8887c18.8975 0 34.2725 -15.374 34.2725 -34.2725v-12.3916c19.9004 -5.05469 38.8779 -12.9199 56.6143 -23.4902l8.78906 8.78906c12.9199 12.9463 35.5 12.959 48.459 0l26.75 -26.7373
c6.59863 -6.625 10.1357 -15.4795 9.89844 -24.9551c0.567383 -8.73633 -3.03613 -18.3047 -9.89844 -25.167l-8.27441 -8.26074c2.19141 -3.80078 4.35547 -7.83887 6.57227 -12.207c7.08691 -14.1074 12.5771 -28.624 16.3643 -43.2725h12.3916
c9.14551 0 17.7764 -3.57715 24.2559 -10.0566c6.4668 -6.47949 10.0303 -15.0967 10.0166 -24.2422v-39.4727c0.0136719 -9.13184 -3.5498 -17.7627 -10.0166 -24.2295c-6.47949 -6.49219 -15.1104 -10.0557 -24.2559 -10.0557h-12.3916
c-3.78711 -14.6621 -9.25098 -29.1787 -16.3643 -43.2725c-2.19043 -4.38184 -4.38086 -8.40625 -6.57227 -12.1943l8.24805 -8.24805c6.87598 -6.88867 10.4658 -16.4434 9.89844 -26.2354c0.263672 -8.43262 -3.27344 -17.3145 -9.89844 -23.9131l-26.75 -26.7363
c-12.9463 -12.9326 -35.5527 -12.9326 -48.4717 0.0263672l-8.77637 8.7627c-17.7363 -10.5703 -36.7139 -18.4365 -56.6143 -23.4902v-12.3789c0 -18.8984 -15.375 -34.2852 -34.2725 -34.2852h-37.8486c-18.8984 0 -34.2725 15.3867 -34.2725 34.2852v12.4971
c-20.0195 5.06836 -38.9707 12.9072 -56.6016 23.3721l-8.80273 -8.78906c-12.9463 -12.9463 -35.5518 -12.9463 -48.4717 0l-26.7373 26.7363c-6.625 6.63867 -10.1484 15.5068 -9.92383 24.9688c-0.554688 8.7627 3.04883 18.3047 9.92383 25.1797l8.24805 8.23535
c-2.17773 3.78711 -4.35449 7.83887 -6.5459 12.1934c-7.04688 14.0684 -12.4971 28.585 -16.2842 43.2725h-12.5107c-9.14551 0 -17.7637 3.56348 -24.2295 10.0303c-6.4668 6.49316 -10.0303 15.0967 -10.0303 24.2559v39.4854
c-0.0126953 9.14551 3.55078 17.749 10.0303 24.2295c6.46582 6.46582 15.0703 10.042 24.2295 10.042h12.5107zM71.0391 230.198c-1.24023 -6.16309 -6.65137 -10.584 -12.96 -10.5439h-23.0146c-2.09863 0 -4.07812 -0.818359 -5.56934 -2.30957
s-2.30957 -3.4707 -2.30957 -5.56934v-39.4717c0 -2.11133 0.818359 -4.10449 2.30957 -5.5957s3.4707 -2.2959 5.56934 -2.2959h23.0146c6.28223 0 11.6934 -4.43457 12.9336 -10.5977c3.24609 -15.9941 8.7627 -31.8965 16.4434 -47.2314
c3.60254 -7.15234 7.09961 -13.3027 10.6895 -18.792c3.41797 -5.22656 2.70508 -12.1279 -1.70215 -16.5488l-15.6123 -15.6387c-2.11133 -2.11133 -2.2959 -4.67188 -2.2168 -6.03125c-0.0136719 -2.63867 0.329102 -4.86914 2.2168 -6.76953l26.75 -26.7373
c2.99609 -3.00879 8.15527 -3.00879 11.1387 0l16.2451 16.2588c2.55957 2.53418 5.93848 3.86621 9.34277 3.86621c2.52148 0 5.06836 -0.711914 7.29785 -2.20312c20.2969 -13.5137 42.8379 -22.8174 66.9746 -27.6875
c6.16309 -1.24023 10.5977 -6.65137 10.5977 -12.9199v-23.042c0 -4.35449 3.53613 -7.8916 7.87793 -7.8916h37.8486c4.3418 0 7.87891 3.53711 7.87891 7.8916v22.9102c0 6.28223 4.43359 11.6924 10.5967 12.9326c23.9395 4.79102 46.4668 14.1475 66.9746 27.7803
c5.25195 3.4834 12.207 2.78418 16.6416 -1.65039l16.2314 -16.2188c2.98242 -3.00879 8.14258 -3.00879 11.125 -0.0263672l26.79 26.75c1.97949 1.97949 2.24316 4.4082 2.2168 5.6748c0.0927734 2.42871 -0.105469 5.00195 -2.2168 7.13965l-15.6123 15.5986
c-4.4209 4.4209 -5.13281 11.3359 -1.70215 16.5625c3.58984 5.47656 7.09961 11.6396 10.7295 18.832c7.7334 15.3877 13.3018 31.25 16.4961 47.165c1.21387 6.16309 6.61133 10.5977 12.9199 10.5977h22.8828c2.09863 0 4.09082 0.831055 5.58203 2.32227
c1.47852 1.46484 2.29688 3.45801 2.29688 5.54297v39.5117c0 2.11133 -0.804688 4.07715 -2.29688 5.56836c-1.49121 1.49121 -3.4834 2.30957 -5.58203 2.30957h-22.9092c-6.26855 0 -11.6797 4.43457 -12.9199 10.5977
c-3.19434 15.9287 -8.7627 31.8047 -16.4961 47.1914c-3.61621 7.16602 -7.13965 13.3164 -10.7158 18.8193c-3.43164 5.22559 -2.71875 12.1543 1.70215 16.5615l15.625 15.6123c2.08496 2.11133 2.2832 4.69824 2.19043 6.05762
c0.0263672 2.61328 -0.303711 4.85645 -2.19043 6.74316l-26.7637 26.75c-2.98242 2.96973 -8.15527 2.98242 -11.125 0l-16.2451 -16.2314c-4.43359 -4.43457 -11.415 -5.13379 -16.6416 -1.65039c-20.5078 13.6465 -43.0479 22.9893 -66.9736 27.7803
c-6.17676 1.22656 -10.6104 6.6377 -10.6104 12.9326v22.9229c0 4.3418 -3.52344 7.87891 -7.87891 7.87891h-37.8486c-4.3418 0 -7.87793 -3.53711 -7.87793 -7.87891v-23.0283c0 -6.28223 -4.42188 -11.6924 -10.584 -12.9326
c-24.1641 -4.88379 -46.7041 -14.2002 -66.9883 -27.6875c-5.23828 -3.48438 -12.207 -2.79785 -16.6406 1.64941l-16.2324 16.2324c-2.98242 2.96875 -8.16895 2.98242 -11.1377 0l-26.7637 -26.75c-1.8877 -1.8877 -2.23047 -4.14453 -2.2041 -5.68848
c-0.0917969 -2.42773 0.0927734 -5.01465 2.19043 -7.09961l15.6387 -15.6387c4.4082 -4.4209 5.12012 -11.3223 1.70215 -16.5488c-3.60254 -5.51562 -7.09961 -11.666 -10.6895 -18.8184c-7.66699 -15.3086 -13.1963 -31.1973 -16.4297 -47.2188z" />
    <glyph glyph-name="uniF11C" unicode="&#xf11c;" 
d="M487.359 301.722c16.3506 -34.418 24.6406 -71.334 24.6406 -109.722c0 -68.3799 -26.6299 -132.666 -74.9814 -181.019c-48.3506 -48.3535 -112.639 -74.9814 -181.019 -74.9814c-40.5488 0 -79.333 9.20605 -115.277 27.3594
c-28.4814 14.3887 -54.332 34.3174 -75.6885 58.1875l4.5498 -31.8506c0.648438 -4.53418 -2.50195 -8.73535 -7.03711 -9.38281c-0.397461 -0.0566406 -0.792969 -0.0849609 -1.18262 -0.0849609c-4.0625 0 -7.60938 2.98535 -8.20117 7.12207l-8.84668 61.9277
c-0.40625 2.8457 0.688477 5.69824 2.89551 7.54102c2.20703 1.8418 5.20996 2.4082 7.9375 1.50098l53.0791 -17.6934c4.34668 -1.44922 6.69531 -6.14453 5.24609 -10.4912c-1.44824 -4.3457 -6.14648 -6.69336 -10.4902 -5.24609l-26.6104 8.87012
c20.1758 -22.8447 44.7256 -41.9014 71.8281 -55.5918c33.6025 -16.9736 69.8721 -25.5811 107.798 -25.5811c63.9502 0 124.071 24.9033 169.291 70.1221c45.2188 45.2197 70.1221 105.342 70.1221 169.291c0 35.9072 -7.75098 70.4268 -23.0371 102.603
c-1.96484 4.13867 -0.206055 9.08691 3.93164 11.0518c4.1416 1.96484 9.08594 0.205078 11.0518 -3.93262zM467.685 334.72c0.40625 -2.8457 -0.688477 -5.69824 -2.89551 -7.54004c-1.5127 -1.26172 -3.40137 -1.92578 -5.31641 -1.92578
c-0.878906 0 -1.76465 0.140625 -2.62207 0.425781l-53.0791 17.6934c-4.34668 1.44922 -6.69531 6.14453 -5.24609 10.4912c1.44824 4.3457 6.14551 6.69434 10.4902 5.24609l26.668 -8.89062c-45.5215 51.7588 -110.285 81.1934 -179.684 81.1934
c-63.9492 0 -124.071 -24.9043 -169.291 -70.1221c-45.2188 -45.2197 -70.1221 -105.342 -70.1221 -169.291c0 -35.9072 7.75098 -70.4277 23.0371 -102.603c1.96484 -4.13867 0.205078 -9.08691 -3.93164 -11.0518
c-1.14941 -0.545898 -2.36133 -0.804688 -3.55371 -0.804688c-3.10254 0 -6.07812 1.74805 -7.49805 4.7373c-16.3506 34.418 -24.6406 71.334 -24.6406 109.722c0 68.3799 26.6299 132.666 74.9814 181.019c48.3506 48.3535 112.639 74.9814 181.019 74.9814
c73.6152 0 142.35 -30.9746 190.96 -85.499l-4.54297 31.7998c-0.648438 4.53418 2.50293 8.73535 7.03809 9.38281c4.53125 0.651367 8.73535 -2.50195 9.38281 -7.03613zM256 359.534c92.3789 0 167.533 -75.1553 167.533 -167.534s-75.1543 -167.533 -167.533 -167.533
s-167.534 75.1543 -167.534 167.533s75.1553 167.534 167.534 167.534zM256 41.0537c83.2324 0 150.946 67.7139 150.946 150.946s-67.7139 150.946 -150.946 150.946s-150.946 -67.7139 -150.946 -150.946s67.7139 -150.946 150.946 -150.946zM256 324.147
c72.8672 0 132.147 -59.2803 132.147 -132.147s-59.2803 -132.147 -132.147 -132.147s-132.147 59.2803 -132.147 132.147s59.2803 132.147 132.147 132.147zM256 76.4414c63.7197 0 115.559 51.8389 115.559 115.559s-51.8389 115.559 -115.559 115.559
s-115.559 -51.8389 -115.559 -115.559s51.8389 -115.559 115.559 -115.559zM264.294 198.171c23.9531 -7.40527 44.2334 -16.9805 44.2334 -41.0049c0 -17.9375 -18.8545 -32.3584 -44.2334 -34.9629v-9.82324c0 -4.58105 -3.71387 -8.29395 -8.29395 -8.29395
c-4.58105 0 -8.29395 3.71387 -8.29395 8.29395v9.82324c-25.3789 2.60449 -44.2334 17.0254 -44.2334 34.9629c0 4.58105 3.71387 8.29395 8.29395 8.29395c4.58105 0 8.29395 -3.71387 8.29395 -8.29395c0 -7.67676 11.0088 -16.1055 27.6465 -18.2656v46.9297
c-23.9531 7.4043 -44.2334 16.9795 -44.2334 41.0039c0 17.9375 18.8545 32.3584 44.2334 34.9629v9.82324c0 4.58105 3.71387 8.29395 8.29395 8.29395c4.58105 0 8.29395 -3.71387 8.29395 -8.29395v-9.82324c25.3789 -2.60449 44.2334 -17.0254 44.2334 -34.9629
c0 -4.58105 -3.71387 -8.29395 -8.29395 -8.29395c-4.58105 0 -8.29395 3.71387 -8.29395 8.29395c0 7.67676 -11.0088 16.1055 -27.6465 18.2656v-46.9287zM247.706 203.277v41.8213c-16.6387 -2.16016 -27.6465 -10.5889 -27.6465 -18.2656
c0 -10.2969 6.97949 -16.5742 27.6465 -23.5557zM264.294 138.9c16.6377 2.16016 27.6465 10.5898 27.6465 18.2666c0 10.2969 -6.97949 16.5742 -27.6465 23.5557v-41.8223z" />
    <glyph glyph-name="uniF105" unicode="&#xf105;" 
d="M298.662 448c23.5273 0 42.667 -19.1396 42.6689 -42.667v-426.666c0 -23.5273 -19.1406 -42.667 -42.667 -42.667h-119.467c-23.5273 0 -42.667 19.1406 -42.667 42.667v85.333c0 4.70996 3.81348 8.5332 8.5332 8.5332c4.71875 0 8.53223 -3.82324 8.53223 -8.5332
v-85.334c0 -14.1143 11.4863 -25.5996 25.6006 -25.5996h119.466c14.1143 0 25.5996 11.4854 25.5996 25.5996v426.667c0 14.1143 -11.4854 25.5996 -25.5996 25.5996h-119.467c-14.1143 0 -25.6006 -11.4854 -25.6006 -25.5996v-25.5996h42.667
c4.71973 0 8.5332 -3.82324 8.5332 -8.5332s-3.81348 -8.5332 -8.5332 -8.5332h-42.667v-17.0684h8.5332c4.71875 0 8.5332 -3.82227 8.5332 -8.53223s-3.81445 -8.5332 -8.5332 -8.5332h-8.5332v-17.0674h8.5332c4.71875 0 8.5332 -3.82324 8.5332 -8.5332
s-3.81445 -8.53223 -8.5332 -8.53223h-8.5332v-17.0684h8.5332c4.71875 0 8.5332 -3.82324 8.5332 -8.5332s-3.81445 -8.5332 -8.5332 -8.5332h-8.5332v-17.0664h42.667c4.71973 0 8.5332 -3.82324 8.5332 -8.5332s-3.81348 -8.5332 -8.5332 -8.5332h-42.667v-17.0664
h8.5332c4.71875 0 8.5332 -3.82324 8.5332 -8.5332s-3.81445 -8.5332 -8.5332 -8.5332h-8.5332v-17.0684h8.5332c4.71875 0 8.5332 -3.82227 8.5332 -8.53223s-3.81445 -8.5332 -8.5332 -8.5332h-8.5332v-17.0674h8.5332c4.71875 0 8.5332 -3.82324 8.5332 -8.5332
s-3.81445 -8.53223 -8.5332 -8.53223h-8.5332v-17.0674h42.667c4.71973 0 8.5332 -3.82324 8.5332 -8.5332s-3.81348 -8.5332 -8.5332 -8.5332h-51.2002c-4.71875 0 -8.53223 3.82324 -8.53223 8.5332v307.2c0 23.5273 19.1406 42.667 42.667 42.667h119.466z
M34.1377 337.075c0 4.71094 3.81445 8.5332 8.5332 8.5332s8.5332 -3.82324 8.5332 -8.5332v-307.2c0 -4.70996 -3.81445 -8.5332 -8.5332 -8.5332s-8.5332 3.82324 -8.5332 8.5332v307.2zM50.2998 443.29l34.0645 -68.1143
c0.597656 -1.14258 0.946289 -2.44922 0.972656 -3.83105v-0.15332v-341.315c0 -4.70996 -3.81348 -8.5332 -8.5332 -8.5332c-4.71875 0 -8.53223 3.82324 -8.53223 8.5332v332.8h-25.6006c-4.71875 0 -8.5332 3.82324 -8.5332 8.5332s3.81445 8.5332 8.5332 8.5332h20.3262
l-20.3262 40.6523l-25.5996 -51.1992v-390.519c0 -14.1133 11.4854 -25.5996 25.5996 -25.5996s25.6006 11.4863 25.6006 25.5996v8.5332h-25.6006c-4.71875 0 -8.5332 3.82324 -8.5332 8.5332s3.81445 8.5332 8.5332 8.5332h34.1338
c4.71973 0 8.5332 -3.82324 8.5332 -8.5332v-17.0674c0 -23.5264 -19.1406 -42.667 -42.667 -42.667c-23.5273 0 -42.667 19.1416 -42.667 42.667v392.533c0 1.32227 0.306641 2.63574 0.896484 3.81445l34.1338 68.2666c2.90039 5.78613 12.373 5.78613 15.2656 0z
M273.062 21.333c0 -18.8242 -15.3086 -34.1328 -34.1328 -34.1328c-18.8232 0 -34.1328 15.3086 -34.1328 34.1328s15.3096 34.1328 34.1328 34.1328c18.8242 0 34.1328 -15.3076 34.1328 -34.1328zM221.862 21.333c0 -9.41211 7.6543 -17.0664 17.0664 -17.0674
c9.4043 0 17.0674 7.6543 17.0674 17.0674s-7.66309 17.0674 -17.0674 17.0674c-9.41309 0 -17.0664 -7.65527 -17.0664 -17.0674zM435.196 38.4004h59.7334v42.667c0 14.1133 -11.4854 25.5996 -25.5996 25.5996h-34.1328c-14.1143 0 -25.6006 -11.4863 -25.6006 -25.5996
v-102.4c0 -14.1143 11.4863 -25.5996 25.6006 -25.5996h34.1328c14.1143 0 25.5996 11.4854 25.5996 25.5996v17.0674c0 4.70996 3.81445 8.53223 8.5332 8.53223s8.5332 -3.82227 8.5332 -8.53223v-17.0674c0 -23.5273 -19.1406 -42.667 -42.667 -42.667h-34.1328
c-23.5273 0 -42.667 19.1406 -42.667 42.667v102.4c0 23.5264 19.1406 42.667 42.667 42.667h34.1328c23.5273 0 42.667 -19.1416 42.667 -42.667v-51.2002c0 -4.70996 -3.81445 -8.5332 -8.5332 -8.5332h-68.2666c-4.71973 0 -8.5332 3.82324 -8.5332 8.5332
s3.81348 8.5332 8.5332 8.5332z" />
  </font>
</defs></svg>
